PCBNEW-LibModule-V1  05/08/2013 18:28:21
# encoding utf-8
Units mm
$INDEX
NRF24L01
PIR_SENSOR
PIR_SENSOR_REVERSED
SIL-3-DGS
$EndINDEX
$MODULE NRF24L01
Po 0 0 0 15 51E6E848 00000000 ~~
Li NRF24L01
Cd Double rangee de contacts 2 x 5 pins
Kw CONN
Sc 0
AR 
Op 0 0 0
T0 0.635 -3.81 1.016 1.016 0 0.2032 N V 21 N "NRF24L01"
T1 0 -3.81 1.016 1.016 0 0.2032 N I 21 N "Val**"
DS -7 2.5 7 2.5 0.15 21
DS 7 2.5 7 -30.5 0.15 21
DS 7 -30.5 -7 -30.5 0.15 21
DS -7 -30.5 -7 2.5 0.15 21
$PAD
Sh "1" R 1.524 1.524 0 0 0
Dr 1.016 0 0
At STD N 00E0FFFF
Ne 0 ""
Po -5.08 1.27
$EndPAD
$PAD
Sh "2" C 1.524 1.524 0 0 0
Dr 1.016 0 0
At STD N 00E0FFFF
Ne 0 ""
Po -5.08 -1.27
$EndPAD
$PAD
Sh "3" C 1.524 1.524 0 0 0
Dr 1.016 0 0
At STD N 00E0FFFF
Ne 0 ""
Po -2.54 1.27
$EndPAD
$PAD
Sh "4" C 1.524 1.524 0 0 0
Dr 1.016 0 0
At STD N 00E0FFFF
Ne 0 ""
Po -2.54 -1.27
$EndPAD
$PAD
Sh "5" C 1.524 1.524 0 0 0
Dr 1.016 0 0
At STD N 00E0FFFF
Ne 0 ""
Po 0 1.27
$EndPAD
$PAD
Sh "6" C 1.524 1.524 0 0 0
Dr 1.016 0 0
At STD N 00E0FFFF
Ne 0 ""
Po 0 -1.27
$EndPAD
$PAD
Sh "7" C 1.524 1.524 0 0 0
Dr 1.016 0 0
At STD N 00E0FFFF
Ne 0 ""
Po 2.54 1.27
$EndPAD
$PAD
Sh "8" C 1.524 1.524 0 0 0
Dr 1.016 0 0
At STD N 00E0FFFF
Ne 0 ""
Po 2.54 -1.27
$EndPAD
$PAD
Sh "9" C 1.524 1.524 0 0 0
Dr 1.016 0 0
At STD N 00E0FFFF
Ne 0 ""
Po 5.08 1.27
$EndPAD
$PAD
Sh "10" C 1.524 1.524 0 0 0
Dr 1.016 0 0
At STD N 00E0FFFF
Ne 0 ""
Po 5.08 -1.27
$EndPAD
$SHAPE3D
Na "pin_array/pins_array_5x2.wrl"
Sc 1 1 1
Of 0 0 0
Ro 0 0 0
$EndSHAPE3D
$EndMODULE NRF24L01
$MODULE PIR_SENSOR
Po 0 0 0 15 51FFD292 00000000 ~~
Li PIR_SENSOR
Cd Connecteur 3 pins
Kw CONN DEV
Sc 0
AR 
Op 0 0 0
T0 0.5 2.5 1.016 1.016 0 0.1524 N V 21 N "PIR SENSOR"
T1 0 -2.159 1.016 1.016 0 0.1524 N I 21 N "Val**"
DS 16 22 13 22 0.15 21
DS 13 22 13 13 0.15 21
DS 13 13 16 13 0.15 21
DC 8.5 19 8.5 21 0.15 21
DS 6 21 -10 21 0.15 21
DS -10 21 -10 16 0.15 21
DS -10 16 6 16 0.15 21
DS 6 16 6 21 0.15 21
DC -14 19 -16 19 0.15 21
DC -14 0 -14 -2 0.15 21
DC 14 0 14 2 0.15 21
DS -16 -2 16 -2 0.15 21
DS 16 -2 16 22 0.15 21
DS 16 22 -16 22 0.15 21
DS -16 22 -16 -2 0.15 21
DS -3.81 1.27 -3.81 -1.27 0.1524 21
DS -3.81 -1.27 3.81 -1.27 0.1524 21
DS 3.81 -1.27 3.81 1.27 0.1524 21
DS 3.81 1.27 -3.81 1.27 0.1524 21
DS -1.27 -1.27 -1.27 1.27 0.1524 21
$PAD
Sh "1" R 1.524 1.524 0 0 0
Dr 1.016 0 0
At STD N 00E0FFFF
Ne 0 ""
Po -2.54 0
$EndPAD
$PAD
Sh "2" C 1.524 1.524 0 0 0
Dr 1.016 0 0
At STD N 00E0FFFF
Ne 0 ""
Po 0 0
$EndPAD
$PAD
Sh "3" C 1.524 1.524 0 0 0
Dr 1.016 0 0
At STD N 00E0FFFF
Ne 0 ""
Po 2.54 0
$EndPAD
$SHAPE3D
Na "pin_array/pins_array_3x1.wrl"
Sc 1 1 1
Of 0 0 0
Ro 0 0 0
$EndSHAPE3D
$EndMODULE PIR_SENSOR
$MODULE PIR_SENSOR_REVERSED
Po 0 0 0 15 51E6F36F 00000000 ~~
Li PIR_SENSOR_REVERSED
Cd Connecteur 3 pins
Kw CONN DEV
Sc 0
AR 
Op 0 0 0
T0 0.5 2.5 1.016 1.016 0 0.1524 N V 21 N "PIR SENSOR REVERSED"
T1 0 -2.159 1.016 1.016 0 0.1524 N I 21 N "Val**"
DS -16 -2 16 -2 0.15 21
DS 16 -2 16 22 0.15 21
DS 16 22 -16 22 0.15 21
DS -16 22 -16 -2 0.15 21
DS -3.81 1.27 -3.81 -1.27 0.1524 21
DS -3.81 -1.27 3.81 -1.27 0.1524 21
DS 3.81 -1.27 3.81 1.27 0.1524 21
DS 3.81 1.27 -3.81 1.27 0.1524 21
DS -1.27 -1.27 -1.27 1.27 0.1524 21
$PAD
Sh "3" R 1.524 1.524 0 0 0
Dr 1.016 0 0
At STD N 00E0FFFF
Ne 0 ""
Po -2.54 0
$EndPAD
$PAD
Sh "2" C 1.524 1.524 0 0 0
Dr 1.016 0 0
At STD N 00E0FFFF
Ne 0 ""
Po 0 0
$EndPAD
$PAD
Sh "1" C 1.524 1.524 0 0 0
Dr 1.016 0 0
At STD N 00E0FFFF
Ne 0 ""
Po 2.54 0
$EndPAD
$SHAPE3D
Na "pin_array/pins_array_3x1.wrl"
Sc 1 1 1
Of 0 0 0
Ro 0 0 0
$EndSHAPE3D
$EndMODULE PIR_SENSOR_REVERSED
$MODULE SIL-3-DGS
Po 0 0 0 15 51E7CD37 00000000 ~~
Li SIL-3-DGS
Cd Connecteur 3 pins
Kw CONN DEV
Sc 0
AR 
Op 0 0 0
T0 0 -2.54 1.7907 1.07696 0 0.3048 N V 21 N "SIL-3"
T1 0 -2.54 1.524 1.016 0 0.3048 N I 21 N "Val**"
DS -3.81 1.27 -3.81 -1.27 0.3048 21
DS -3.81 -1.27 3.81 -1.27 0.3048 21
DS 3.81 -1.27 3.81 1.27 0.3048 21
DS 3.81 1.27 -3.81 1.27 0.3048 21
DS -1.27 -1.27 -1.27 1.27 0.3048 21
$PAD
Sh "D" R 1.397 1.397 0 0 0
Dr 0.8128 0 0
At STD N 00E0FFFF
Ne 0 ""
Po -2.54 0
$EndPAD
$PAD
Sh "G" C 1.397 1.397 0 0 0
Dr 0.8128 0 0
At STD N 00E0FFFF
Ne 0 ""
Po 0 0
$EndPAD
$PAD
Sh "S" C 1.397 1.397 0 0 0
Dr 0.8128 0 0
At STD N 00E0FFFF
Ne 0 ""
Po 2.54 0
$EndPAD
$EndMODULE SIL-3-DGS
$EndLIBRARY
