%!PS-Adobe-3.0
%%Creator: PCBNEW
%%CreationDate: Sat Aug 16 20:06:50 2014
%%Title: d:\Users\Pila\Desktop\Alarme\motion sensor unit\detectors_kicad_3\detector-Dessous_Cu.ps
%%Pages: 1
%%PageOrder: Ascend
%%BoundingBox: 0 0 596 842
%%DocumentMedia: A4 595 842 0 () ()
%%Orientation: Landscape
%%EndComments
%%BeginProlog
/line { newpath moveto lineto stroke } bind def
/cir0 { newpath 0 360 arc stroke } bind def
/cir1 { newpath 0 360 arc gsave fill grestore stroke } bind def
/cir2 { newpath 0 360 arc gsave fill grestore stroke } bind def
/arc0 { newpath arc stroke } bind def
/arc1 { newpath 4 index 4 index moveto arc closepath gsave fill
    grestore stroke } bind def
/arc2 { newpath 4 index 4 index moveto arc closepath gsave fill
    grestore stroke } bind def
/poly0 { stroke } bind def
/poly1 { closepath gsave fill grestore stroke } bind def
/poly2 { closepath gsave fill grestore stroke } bind def
/rect0 { rectstroke } bind def
/rect1 { rectfill } bind def
/rect2 { rectfill } bind def
/linemode0 { 0 setlinecap 0 setlinejoin 0 setlinewidth } bind def
/linemode1 { 1 setlinecap 1 setlinejoin } bind def
/dashedline { [200] 100 setdash } bind def
/solidline { [] 0 setdash } bind def
/phantomshow { moveto
    /KicadFont findfont 0.000001 scalefont setfont
    show } bind def
/textshow { gsave
    findfont exch scalefont setfont concat 1 scale 0 0 moveto show
    } bind def
/reencodefont {
  findfont dup length dict begin
  { 1 index /FID ne
    { def }
    { pop pop } ifelse
  } forall
  /Encoding ISOLatin1Encoding def
  currentdict
  end } bind def
/KicadFont /Helvetica reencodefont definefont pop
/KicadFont-Bold /Helvetica-Bold reencodefont definefont pop
/KicadFont-Oblique /Helvetica-Oblique reencodefont definefont pop
/KicadFont-BoldOblique /Helvetica-BoldOblique reencodefont definefont pop
%%EndProlog
%%Page: 1 1
%%BeginPageSetup
gsave
0.0072 0.0072 scale
linemode1
82680 0 translate 90 rotate
59.0551 setlinewidth
%%EndPageSetup
0 0 0 setrgbcolor
0 0 0 setrgbcolor
39.3701 setlinewidth
newpath
63500 30430 moveto
82500 30430 lineto
stroke
0 0 0 setrgbcolor
newpath
63500 52180 moveto
63500 30430 lineto
stroke
0 0 0 setrgbcolor
newpath
82500 32180 moveto
82500 30430 lineto
stroke
0 0 0 setrgbcolor
98.4252 setlinewidth
(MotionSensor v3 ) 81250 51680 phantomshow
newpath
81409.4 51544.1 moveto
81015.7 51544.1 lineto
81296.9 51353.8 lineto
81015.7 51163.5 lineto
81409.4 51163.5 lineto
stroke
newpath
81409.4 50810.1 moveto
81390.6 50864.5 lineto
81371.9 50891.7 lineto
81334.4 50918.8 lineto
81221.9 50918.8 lineto
81184.4 50891.7 lineto
81165.6 50864.5 lineto
81146.9 50810.1 lineto
81146.9 50728.6 lineto
81165.6 50674.2 lineto
81184.4 50647 lineto
81221.9 50619.8 lineto
81334.4 50619.8 lineto
81371.9 50647 lineto
81390.6 50674.2 lineto
81409.4 50728.6 lineto
81409.4 50810.1 lineto
stroke
newpath
81146.9 50456.7 moveto
81146.9 50239.2 lineto
stroke
newpath
81015.7 50375.2 moveto
81353.1 50375.2 lineto
81390.6 50348 lineto
81409.4 50293.6 lineto
81409.4 50239.2 lineto
stroke
newpath
81409.4 50049 moveto
81146.9 50049 lineto
stroke
newpath
81015.7 50049 moveto
81034.4 50076.1 lineto
81053.1 50049 lineto
81034.4 50021.8 lineto
81015.7 50049 lineto
81053.1 50049 lineto
stroke
newpath
81409.4 49695.6 moveto
81390.6 49749.9 lineto
81371.9 49777.1 lineto
81334.4 49804.3 lineto
81221.9 49804.3 lineto
81184.4 49777.1 lineto
81165.6 49749.9 lineto
81146.9 49695.6 lineto
81146.9 49614 lineto
81165.6 49559.6 lineto
81184.4 49532.5 lineto
81221.9 49505.3 lineto
81334.4 49505.3 lineto
81371.9 49532.5 lineto
81390.6 49559.6 lineto
81409.4 49614 lineto
81409.4 49695.6 lineto
stroke
newpath
81146.9 49260.6 moveto
81409.4 49260.6 lineto
stroke
newpath
81184.4 49260.6 moveto
81165.6 49233.4 lineto
81146.9 49179.1 lineto
81146.9 49097.5 lineto
81165.6 49043.1 lineto
81203.1 49016 lineto
81409.4 49016 lineto
stroke
newpath
81390.6 48771.3 moveto
81409.4 48689.7 lineto
81409.4 48553.8 lineto
81390.6 48499.5 lineto
81371.9 48472.3 lineto
81334.4 48445.1 lineto
81296.9 48445.1 lineto
81259.4 48472.3 lineto
81240.6 48499.5 lineto
81221.9 48553.8 lineto
81203.1 48662.6 lineto
81184.4 48716.9 lineto
81165.6 48744.1 lineto
81128.1 48771.3 lineto
81090.6 48771.3 lineto
81053.1 48744.1 lineto
81034.4 48716.9 lineto
81015.7 48662.6 lineto
81015.7 48526.6 lineto
81034.4 48445.1 lineto
stroke
newpath
81390.6 47983 moveto
81409.4 48037.3 lineto
81409.4 48146.1 lineto
81390.6 48200.4 lineto
81353.1 48227.6 lineto
81203.1 48227.6 lineto
81165.6 48200.4 lineto
81146.9 48146.1 lineto
81146.9 48037.3 lineto
81165.6 47983 lineto
81203.1 47955.8 lineto
81240.6 47955.8 lineto
81278.1 48227.6 lineto
stroke
newpath
81146.9 47711.1 moveto
81409.4 47711.1 lineto
stroke
newpath
81184.4 47711.1 moveto
81165.6 47683.9 lineto
81146.9 47629.6 lineto
81146.9 47548 lineto
81165.6 47493.6 lineto
81203.1 47466.5 lineto
81409.4 47466.5 lineto
stroke
newpath
81390.6 47221.8 moveto
81409.4 47167.4 lineto
81409.4 47058.7 lineto
81390.6 47004.3 lineto
81353.1 46977.2 lineto
81334.4 46977.2 lineto
81296.9 47004.3 lineto
81278.1 47058.7 lineto
81278.1 47140.3 lineto
81259.4 47194.6 lineto
81221.9 47221.8 lineto
81203.1 47221.8 lineto
81165.6 47194.6 lineto
81146.9 47140.3 lineto
81146.9 47058.7 lineto
81165.6 47004.3 lineto
stroke
newpath
81409.4 46650.9 moveto
81390.6 46705.3 lineto
81371.9 46732.5 lineto
81334.4 46759.7 lineto
81221.9 46759.7 lineto
81184.4 46732.5 lineto
81165.6 46705.3 lineto
81146.9 46650.9 lineto
81146.9 46569.4 lineto
81165.6 46515 lineto
81184.4 46487.8 lineto
81221.9 46460.7 lineto
81334.4 46460.7 lineto
81371.9 46487.8 lineto
81390.6 46515 lineto
81409.4 46569.4 lineto
81409.4 46650.9 lineto
stroke
newpath
81409.4 46216 moveto
81146.9 46216 lineto
stroke
newpath
81221.9 46216 moveto
81184.4 46188.8 lineto
81165.6 46161.6 lineto
81146.9 46107.3 lineto
81146.9 46052.9 lineto
stroke
newpath
81146.9 45482 moveto
81409.4 45346.1 lineto
81146.9 45210.2 lineto
stroke
newpath
81015.7 45047.1 moveto
81015.7 44693.7 lineto
81165.6 44884 lineto
81165.6 44802.4 lineto
81184.4 44748.1 lineto
81203.1 44720.9 lineto
81240.6 44693.7 lineto
81334.4 44693.7 lineto
81371.9 44720.9 lineto
81390.6 44748.1 lineto
81409.4 44802.4 lineto
81409.4 44965.5 lineto
81390.6 45019.9 lineto
81371.9 45047.1 lineto
stroke
(Alarm 2014 Pila) 81899.6 51680 phantomshow
newpath
81946.5 51571.3 moveto
81946.5 51299.4 lineto
stroke
newpath
82059 51625.6 moveto
81665.3 51435.3 lineto
82059 51245.1 lineto
stroke
newpath
82059 50973.2 moveto
82040.2 51027.6 lineto
82002.7 51054.8 lineto
81665.3 51054.8 lineto
stroke
newpath
82059 50511.1 moveto
81852.7 50511.1 lineto
81815.2 50538.3 lineto
81796.5 50592.6 lineto
81796.5 50701.4 lineto
81815.2 50755.7 lineto
stroke
newpath
82040.2 50511.1 moveto
82059 50565.5 lineto
82059 50701.4 lineto
82040.2 50755.7 lineto
82002.7 50782.9 lineto
81965.2 50782.9 lineto
81927.7 50755.7 lineto
81909 50701.4 lineto
81909 50565.5 lineto
81890.2 50511.1 lineto
stroke
newpath
82059 50239.2 moveto
81796.5 50239.2 lineto
stroke
newpath
81871.5 50239.2 moveto
81834 50212.1 lineto
81815.2 50184.9 lineto
81796.5 50130.5 lineto
81796.5 50076.1 lineto
stroke
newpath
82059 49885.8 moveto
81796.5 49885.8 lineto
stroke
newpath
81834 49885.8 moveto
81815.2 49858.7 lineto
81796.5 49804.3 lineto
81796.5 49722.7 lineto
81815.2 49668.4 lineto
81852.7 49641.2 lineto
82059 49641.2 lineto
stroke
newpath
81852.7 49641.2 moveto
81815.2 49614 lineto
81796.5 49559.6 lineto
81796.5 49478.1 lineto
81815.2 49423.7 lineto
81852.7 49396.5 lineto
82059 49396.5 lineto
stroke
newpath
81702.8 48716.9 moveto
81684 48689.7 lineto
81665.3 48635.4 lineto
81665.3 48499.5 lineto
81684 48445.1 lineto
81702.8 48417.9 lineto
81740.3 48390.7 lineto
81777.7 48390.7 lineto
81834 48417.9 lineto
82059 48744.1 lineto
82059 48390.7 lineto
stroke
newpath
81665.3 48037.3 moveto
81665.3 47983 lineto
81684 47928.6 lineto
81702.8 47901.4 lineto
81740.3 47874.2 lineto
81815.2 47847 lineto
81909 47847 lineto
81984 47874.2 lineto
82021.5 47901.4 lineto
82040.2 47928.6 lineto
82059 47983 lineto
82059 48037.3 lineto
82040.2 48091.7 lineto
82021.5 48118.9 lineto
81984 48146.1 lineto
81909 48173.3 lineto
81815.2 48173.3 lineto
81740.3 48146.1 lineto
81702.8 48118.9 lineto
81684 48091.7 lineto
81665.3 48037.3 lineto
stroke
newpath
82059 47303.4 moveto
82059 47629.6 lineto
stroke
newpath
82059 47466.5 moveto
81665.3 47466.5 lineto
81721.5 47520.8 lineto
81759 47575.2 lineto
81777.7 47629.6 lineto
stroke
newpath
81796.5 46814 moveto
82059 46814 lineto
stroke
newpath
81646.5 46950 moveto
81927.7 47085.9 lineto
81927.7 46732.5 lineto
stroke
newpath
82059 46080.1 moveto
81665.3 46080.1 lineto
81665.3 45862.6 lineto
81684 45808.2 lineto
81702.8 45781.1 lineto
81740.3 45753.9 lineto
81796.5 45753.9 lineto
81834 45781.1 lineto
81852.7 45808.2 lineto
81871.5 45862.6 lineto
81871.5 46080.1 lineto
stroke
newpath
82059 45509.2 moveto
81796.5 45509.2 lineto
stroke
newpath
81665.3 45509.2 moveto
81684 45536.4 lineto
81702.8 45509.2 lineto
81684 45482 lineto
81665.3 45509.2 lineto
81702.8 45509.2 lineto
stroke
newpath
82059 45155.8 moveto
82040.2 45210.2 lineto
82002.7 45237.4 lineto
81665.3 45237.4 lineto
stroke
newpath
82059 44693.7 moveto
81852.7 44693.7 lineto
81815.2 44720.9 lineto
81796.5 44775.2 lineto
81796.5 44884 lineto
81815.2 44938.3 lineto
stroke
newpath
82040.2 44693.7 moveto
82059 44748.1 lineto
82059 44884 lineto
82040.2 44938.3 lineto
82002.7 44965.5 lineto
81965.2 44965.5 lineto
81927.7 44938.3 lineto
81909 44884 lineto
81909 44748.1 lineto
81890.2 44693.7 lineto
stroke
0 0 0 setrgbcolor
39.3701 setlinewidth
newpath
82500 52180 moveto
82500 32180 lineto
stroke
0 0 0 setrgbcolor
newpath
63500 52180 moveto
82500 52180 lineto
stroke
0 0 0 setrgbcolor
629.921 setlinewidth
newpath
64500 47107.2 moveto
64500 46752.8 lineto
stroke
0 0 0 setrgbcolor
newpath
65500 47107.2 moveto
65500 46752.8 lineto
stroke
0 0 0 setrgbcolor
newpath
66500 47107.2 moveto
66500 46752.8 lineto
stroke
0 0 0 setrgbcolor
600 setlinewidth
newpath
74000 37336.3 moveto
74000 37523.7 lineto
stroke
0 0 0 setrgbcolor
newpath
73000 37336.3 moveto
73000 37523.7 lineto
stroke
0 0 0 setrgbcolor
newpath
72000 37336.3 moveto
72000 37523.7 lineto
stroke
0 0 0 setrgbcolor
59.0551 setlinewidth
newpath
68969.5 39259.5 moveto
68969.5 40100.5 lineto
69530.5 40100.5 lineto
69530.5 39259.5 lineto
68969.5 39259.5 lineto
poly1
0 0 0 setrgbcolor
620 setlinewidth
newpath
70250 39820 moveto
70250 39540 lineto
stroke
0 0 0 setrgbcolor
newpath
71250 39820 moveto
71250 39540 lineto
stroke
0 0 0 setrgbcolor
newpath
72250 39820 moveto
72250 39540 lineto
stroke
0 0 0 setrgbcolor
newpath
73250 39820 moveto
73250 39540 lineto
stroke
0 0 0 setrgbcolor
newpath
74250 39820 moveto
74250 39540 lineto
stroke
0 0 0 setrgbcolor
newpath
75250 39820 moveto
75250 39540 lineto
stroke
0 0 0 setrgbcolor
newpath
76250 39820 moveto
76250 39540 lineto
stroke
0 0 0 setrgbcolor
newpath
77250 39820 moveto
77250 39540 lineto
stroke
0 0 0 setrgbcolor
newpath
77250 42820 moveto
77250 42540 lineto
stroke
0 0 0 setrgbcolor
newpath
76250 42820 moveto
76250 42540 lineto
stroke
0 0 0 setrgbcolor
newpath
75250 42820 moveto
75250 42540 lineto
stroke
0 0 0 setrgbcolor
newpath
74250 42820 moveto
74250 42540 lineto
stroke
0 0 0 setrgbcolor
newpath
73250 42820 moveto
73250 42540 lineto
stroke
0 0 0 setrgbcolor
newpath
72250 42820 moveto
72250 42540 lineto
stroke
0 0 0 setrgbcolor
newpath
71250 42820 moveto
71250 42540 lineto
stroke
0 0 0 setrgbcolor
newpath
70250 42820 moveto
70250 42540 lineto
stroke
0 0 0 setrgbcolor
newpath
69250 42820 moveto
69250 42540 lineto
stroke
0 0 0 setrgbcolor
787.402 setlinewidth
newpath
65000 35483.1 moveto
65000 35876.9 lineto
stroke
0 0 0 setrgbcolor
newpath
67000 35483.1 moveto
67000 35876.9 lineto
stroke
0 0 0 setrgbcolor
newpath
65000 32483.1 moveto
65000 32876.9 lineto
stroke
0 0 0 setrgbcolor
newpath
67000 32483.1 moveto
67000 32876.9 lineto
stroke
0 0 0 setrgbcolor
708.661 setlinewidth
newpath
65250 42680 moveto
65250 42680 lineto
stroke
0 0 0 setrgbcolor
newpath
65250 38680 moveto
65250 38680 lineto
stroke
0 0 0 setrgbcolor
newpath
67500 41680 moveto
67500 41680 lineto
stroke
0 0 0 setrgbcolor
newpath
67500 39680 moveto
67500 39680 lineto
stroke
0 0 0 setrgbcolor
newpath
73750 34180 moveto
73750 34180 lineto
stroke
0 0 0 setrgbcolor
newpath
73750 32180 moveto
73750 32180 lineto
stroke
0 0 0 setrgbcolor
newpath
78500 33180 moveto
78500 33180 lineto
stroke
0 0 0 setrgbcolor
newpath
78500 35180 moveto
78500 35180 lineto
stroke
0 0 0 setrgbcolor
newpath
80000 33180 moveto
80000 33180 lineto
stroke
0 0 0 setrgbcolor
newpath
80000 37180 moveto
80000 37180 lineto
stroke
0 0 0 setrgbcolor
newpath
77000 37180 moveto
77000 37180 lineto
stroke
0 0 0 setrgbcolor
newpath
77000 33180 moveto
77000 33180 lineto
stroke
0 0 0 setrgbcolor
newpath
68500 36180 moveto
68500 36180 lineto
stroke
0 0 0 setrgbcolor
newpath
68500 32180 moveto
68500 32180 lineto
stroke
0 0 0 setrgbcolor
newpath
71250 36180 moveto
71250 36180 lineto
stroke
0 0 0 setrgbcolor
newpath
75250 36180 moveto
75250 36180 lineto
stroke
0 0 0 setrgbcolor
629.921 setlinewidth
newpath
75322.8 32180 moveto
75677.2 32180 lineto
stroke
0 0 0 setrgbcolor
newpath
75322.8 33180 moveto
75677.2 33180 lineto
stroke
0 0 0 setrgbcolor
newpath
75322.8 34180 moveto
75677.2 34180 lineto
stroke
0 0 0 setrgbcolor
newpath
70177.2 36180 moveto
69822.8 36180 lineto
stroke
0 0 0 setrgbcolor
newpath
70177.2 35180 moveto
69822.8 35180 lineto
stroke
0 0 0 setrgbcolor
newpath
70177.2 34180 moveto
69822.8 34180 lineto
stroke
0 0 0 setrgbcolor
newpath
71822.8 33180 moveto
72177.2 33180 lineto
stroke
0 0 0 setrgbcolor
newpath
71822.8 34180 moveto
72177.2 34180 lineto
stroke
0 0 0 setrgbcolor
newpath
71822.8 35180 moveto
72177.2 35180 lineto
stroke
0 0 0 setrgbcolor
newpath
67322.8 49180 moveto
67677.2 49180 lineto
stroke
0 0 0 setrgbcolor
newpath
67322.8 50180 moveto
67677.2 50180 lineto
stroke
0 0 0 setrgbcolor
newpath
67322.8 51180 moveto
67677.2 51180 lineto
stroke
0 0 0 setrgbcolor
708.661 setlinewidth
newpath
75250 38555 moveto
75250 38555 lineto
stroke
0 0 0 setrgbcolor
newpath
71250 38555 moveto
71250 38555 lineto
stroke
0 0 0 setrgbcolor
newpath
66250 42680 moveto
66250 42680 lineto
stroke
0 0 0 setrgbcolor
newpath
66250 38680 moveto
66250 38680 lineto
stroke
0 0 0 setrgbcolor
59.0551 setlinewidth
71750 49680 561.024 cir1
0 0 0 setrgbcolor
86750 35430 770.472 cir1
0 0 0 setrgbcolor
600 setlinewidth
newpath
68906.3 49180 moveto
69093.7 49180 lineto
stroke
0 0 0 setrgbcolor
newpath
68906.3 50180 moveto
69093.7 50180 lineto
stroke
0 0 0 setrgbcolor
59.0551 setlinewidth
newpath
76555.1 46874.9 moveto
75944.9 46874.9 lineto
75944.9 47485.1 lineto
76555.1 47485.1 lineto
76555.1 46874.9 lineto
poly1
0 0 0 setrgbcolor
newpath
75555.1 46874.9 moveto
74944.9 46874.9 lineto
74944.9 47485.1 lineto
75555.1 47485.1 lineto
75555.1 46874.9 lineto
poly1
0 0 0 setrgbcolor
newpath
76555.1 47874.9 moveto
75944.9 47874.9 lineto
75944.9 48485.1 lineto
76555.1 48485.1 lineto
76555.1 47874.9 lineto
poly1
0 0 0 setrgbcolor
newpath
75555.1 47874.9 moveto
74944.9 47874.9 lineto
74944.9 48485.1 lineto
75555.1 48485.1 lineto
75555.1 47874.9 lineto
poly1
0 0 0 setrgbcolor
newpath
76555.1 48874.9 moveto
75944.9 48874.9 lineto
75944.9 49485.1 lineto
76555.1 49485.1 lineto
76555.1 48874.9 lineto
poly1
0 0 0 setrgbcolor
newpath
75555.1 48874.9 moveto
74944.9 48874.9 lineto
74944.9 49485.1 lineto
75555.1 49485.1 lineto
75555.1 48874.9 lineto
poly1
0 0 0 setrgbcolor
newpath
76555.1 49874.9 moveto
75944.9 49874.9 lineto
75944.9 50485.1 lineto
76555.1 50485.1 lineto
76555.1 49874.9 lineto
poly1
0 0 0 setrgbcolor
newpath
75555.1 49874.9 moveto
74944.9 49874.9 lineto
74944.9 50485.1 lineto
75555.1 50485.1 lineto
75555.1 49874.9 lineto
poly1
0 0 0 setrgbcolor
newpath
76555.1 50874.9 moveto
75944.9 50874.9 lineto
75944.9 51485.1 lineto
76555.1 51485.1 lineto
76555.1 50874.9 lineto
poly1
0 0 0 setrgbcolor
newpath
75555.1 50874.9 moveto
74944.9 50874.9 lineto
74944.9 51485.1 lineto
75555.1 51485.1 lineto
75555.1 50874.9 lineto
poly1
0 0 0 setrgbcolor
newpath
67824.8 46605.2 moveto
67175.2 46605.2 lineto
67175.2 47254.8 lineto
67824.8 47254.8 lineto
67824.8 46605.2 lineto
poly1
0 0 0 setrgbcolor
708.661 setlinewidth
newpath
67500 47930 moveto
67500 47930 lineto
stroke
0 0 0 setrgbcolor
59.0551 setlinewidth
newpath
80925.2 42504.8 moveto
81574.8 42504.8 lineto
81574.8 41855.2 lineto
80925.2 41855.2 lineto
80925.2 42504.8 lineto
poly1
0 0 0 setrgbcolor
708.661 setlinewidth
newpath
81250 41180 moveto
81250 41180 lineto
stroke
0 0 0 setrgbcolor
59.0551 setlinewidth
81250 40180 324.803 cir1
0 0 0 setrgbcolor
708.661 setlinewidth
newpath
77250 43680 moveto
77250 43680 lineto
stroke
0 0 0 setrgbcolor
newpath
81250 43680 moveto
81250 43680 lineto
stroke
0 0 0 setrgbcolor
newpath
77250 38680 moveto
77250 38680 lineto
stroke
0 0 0 setrgbcolor
newpath
81250 38680 moveto
81250 38680 lineto
stroke
0 0 0 setrgbcolor
59.0551 setlinewidth
newpath
65824.8 45504.8 moveto
65824.8 44855.2 lineto
65175.2 44855.2 lineto
65175.2 45504.8 lineto
65824.8 45504.8 lineto
poly1
0 0 0 setrgbcolor
708.661 setlinewidth
newpath
64500 45180 moveto
64500 45180 lineto
stroke
0 0 0 setrgbcolor
500 setlinewidth
newpath
72000 37430 moveto
72000 36930 lineto
stroke
0 0 0 setrgbcolor
newpath
72000 36930 moveto
72500 36430 lineto
stroke
0 0 0 setrgbcolor
newpath
72000 37430 moveto
72000 37930 lineto
stroke
0 0 0 setrgbcolor
newpath
72000 37930 moveto
73250 39180 lineto
stroke
0 0 0 setrgbcolor
newpath
73250 39180 moveto
73250 39680 lineto
stroke
0 0 0 setrgbcolor
375.197 setlinewidth
newpath
77250 43680 moveto
77250 42680 lineto
stroke
0 0 0 setrgbcolor
newpath
77250 39680 moveto
77250 38680 lineto
stroke
0 0 0 setrgbcolor
newpath
75500 33180 moveto
77000 33180 lineto
stroke
0 0 0 setrgbcolor
newpath
78500 33180 moveto
80000 33180 lineto
stroke
0 0 0 setrgbcolor
newpath
77000 33180 moveto
78500 33180 lineto
stroke
0 0 0 setrgbcolor
newpath
76250 42680 moveto
76250 44180 lineto
stroke
0 0 0 setrgbcolor
newpath
77250 50180 moveto
76250 50180 lineto
stroke
0 0 0 setrgbcolor
newpath
78750 48680 moveto
77250 50180 lineto
stroke
0 0 0 setrgbcolor
newpath
78750 45680 moveto
78750 48680 lineto
stroke
0 0 0 setrgbcolor
newpath
77750 44680 moveto
78750 45680 lineto
stroke
0 0 0 setrgbcolor
newpath
76750 44680 moveto
77750 44680 lineto
stroke
0 0 0 setrgbcolor
newpath
76250 44180 moveto
76750 44680 lineto
stroke
0 0 0 setrgbcolor
newpath
71250 38555 moveto
69875 38555 lineto
stroke
0 0 0 setrgbcolor
newpath
68250 37430 moveto
67000 36180 lineto
stroke
0 0 0 setrgbcolor
newpath
68750 37430 moveto
68250 37430 lineto
stroke
0 0 0 setrgbcolor
newpath
69875 38555 moveto
68750 37430 lineto
stroke
0 0 0 setrgbcolor
newpath
67000 36180 moveto
67000 35680 lineto
stroke
0 0 0 setrgbcolor
newpath
67000 36180 moveto
67000 35680 lineto
stroke
0 0 0 setrgbcolor
newpath
71250 38555 moveto
71625 38555 lineto
stroke
0 0 0 setrgbcolor
newpath
72250 39180 moveto
72250 39680 lineto
stroke
0 0 0 setrgbcolor
newpath
71625 38555 moveto
72250 39180 lineto
stroke
0 0 0 setrgbcolor
newpath
67500 35180 moveto
67000 35680 lineto
stroke
0 0 0 setrgbcolor
newpath
67000 34680 moveto
67500 35180 lineto
stroke
0 0 0 setrgbcolor
newpath
70000 35180 moveto
67500 35180 lineto
stroke
0 0 0 setrgbcolor
newpath
67500 35180 moveto
67000 35180 lineto
stroke
0 0 0 setrgbcolor
newpath
67000 35180 moveto
67000 34930 lineto
stroke
0 0 0 setrgbcolor
newpath
70000 35180 moveto
72000 35180 lineto
stroke
0 0 0 setrgbcolor
newpath
67000 36180 moveto
67000 35680 lineto
stroke
0 0 0 setrgbcolor
newpath
67000 36180 moveto
67000 35680 lineto
stroke
0 0 0 setrgbcolor
newpath
67000 32680 moveto
67000 34680 lineto
stroke
0 0 0 setrgbcolor
newpath
67000 34680 moveto
67000 34930 lineto
stroke
0 0 0 setrgbcolor
newpath
67000 34930 moveto
67000 35680 lineto
stroke
0 0 0 setrgbcolor
500 setlinewidth
newpath
75250 37930 moveto
75250 38555 lineto
stroke
0 0 0 setrgbcolor
newpath
75750 37430 moveto
75250 37930 lineto
stroke
0 0 0 setrgbcolor
newpath
66500 46930 moveto
67500 46930 lineto
stroke
0 0 0 setrgbcolor
newpath
77500 37430 moveto
77250 37430 lineto
stroke
0 0 0 setrgbcolor
newpath
77250 37430 moveto
77000 37180 lineto
stroke
0 0 0 setrgbcolor
newpath
76500 37430 moveto
76750 37430 lineto
stroke
0 0 0 setrgbcolor
newpath
76750 37430 moveto
77000 37180 lineto
stroke
0 0 0 setrgbcolor
newpath
73250 42180 moveto
73750 41680 lineto
stroke
0 0 0 setrgbcolor
newpath
72750 41680 moveto
73250 42180 lineto
stroke
0 0 0 setrgbcolor
newpath
75250 36930 moveto
75750 37430 lineto
stroke
0 0 0 setrgbcolor
newpath
74750 37430 moveto
75250 36930 lineto
stroke
0 0 0 setrgbcolor
newpath
74750 37430 moveto
75250 37930 lineto
stroke
0 0 0 setrgbcolor
newpath
75500 37430 moveto
75750 37430 lineto
stroke
0 0 0 setrgbcolor
newpath
75750 37430 moveto
76500 37430 lineto
stroke
0 0 0 setrgbcolor
newpath
76500 37430 moveto
77500 37430 lineto
stroke
0 0 0 setrgbcolor
newpath
76750 41680 moveto
73750 41680 lineto
stroke
0 0 0 setrgbcolor
newpath
76750 41680 moveto
78250 40180 lineto
stroke
0 0 0 setrgbcolor
newpath
78250 40180 moveto
78250 38180 lineto
stroke
0 0 0 setrgbcolor
newpath
77500 37430 moveto
78250 38180 lineto
stroke
0 0 0 setrgbcolor
newpath
73750 41680 moveto
73250 41680 lineto
stroke
0 0 0 setrgbcolor
newpath
75250 37430 moveto
75500 37430 lineto
stroke
0 0 0 setrgbcolor
newpath
74000 37430 moveto
74750 37430 lineto
stroke
0 0 0 setrgbcolor
newpath
74750 37430 moveto
75250 37430 lineto
stroke
0 0 0 setrgbcolor
newpath
75250 37930 moveto
75250 37430 lineto
stroke
0 0 0 setrgbcolor
newpath
75250 37430 moveto
75250 36930 lineto
stroke
0 0 0 setrgbcolor
newpath
75250 36930 moveto
75250 36430 lineto
stroke
0 0 0 setrgbcolor
newpath
75250 36430 moveto
75250 36180 lineto
stroke
0 0 0 setrgbcolor
newpath
75250 47180 moveto
76250 47180 lineto
stroke
0 0 0 setrgbcolor
newpath
73250 42680 moveto
73250 45180 lineto
stroke
0 0 0 setrgbcolor
newpath
73250 45180 moveto
75250 47180 lineto
stroke
0 0 0 setrgbcolor
newpath
67500 46930 moveto
67500 41680 lineto
stroke
0 0 0 setrgbcolor
newpath
67500 41680 moveto
72750 41680 lineto
stroke
0 0 0 setrgbcolor
newpath
72750 41680 moveto
73250 41680 lineto
stroke
0 0 0 setrgbcolor
newpath
73250 42680 moveto
73250 42180 lineto
stroke
0 0 0 setrgbcolor
newpath
73250 42180 moveto
73250 41680 lineto
stroke
0 0 0 setrgbcolor
newpath
69000 49180 moveto
67500 49180 lineto
stroke
0 0 0 setrgbcolor
newpath
66250 42680 moveto
66250 44430 lineto
stroke
0 0 0 setrgbcolor
newpath
66250 44430 moveto
65500 45180 lineto
stroke
0 0 0 setrgbcolor
newpath
65500 46930 moveto
65500 45180 lineto
stroke
0 0 0 setrgbcolor
newpath
67500 50180 moveto
67000 50180 lineto
stroke
0 0 0 setrgbcolor
newpath
67000 50180 moveto
65500 48680 lineto
stroke
0 0 0 setrgbcolor
newpath
65500 48680 moveto
65500 46930 lineto
stroke
0 0 0 setrgbcolor
newpath
69000 50180 moveto
67500 50180 lineto
stroke
0 0 0 setrgbcolor
375.197 setlinewidth
newpath
66250 38680 moveto
68500 38680 lineto
stroke
0 0 0 setrgbcolor
newpath
69250 39430 moveto
69250 39680 lineto
stroke
0 0 0 setrgbcolor
newpath
68500 38680 moveto
69250 39430 lineto
stroke
0 0 0 setrgbcolor
newpath
65250 38680 moveto
66250 38680 lineto
stroke
0 0 0 setrgbcolor
newpath
72000 34180 moveto
70000 34180 lineto
stroke
0 0 0 setrgbcolor
newpath
73750 34180 moveto
72000 34180 lineto
stroke
0 0 0 setrgbcolor
newpath
75500 34180 moveto
73750 34180 lineto
stroke
0 0 0 setrgbcolor
newpath
68500 32180 moveto
68500 32680 lineto
stroke
0 0 0 setrgbcolor
newpath
68500 32680 moveto
70000 34180 lineto
stroke
0 0 0 setrgbcolor
newpath
77250 45430 moveto
78000 46180 lineto
stroke
0 0 0 setrgbcolor
newpath
76250 49180 moveto
77000 49180 lineto
stroke
0 0 0 setrgbcolor
newpath
77250 45430 moveto
76250 45430 lineto
stroke
0 0 0 setrgbcolor
newpath
76250 45430 moveto
75250 44430 lineto
stroke
0 0 0 setrgbcolor
newpath
75250 44430 moveto
75250 42680 lineto
stroke
0 0 0 setrgbcolor
newpath
78000 48180 moveto
77000 49180 lineto
stroke
0 0 0 setrgbcolor
newpath
78000 47180 moveto
78000 48180 lineto
stroke
0 0 0 setrgbcolor
newpath
78000 46180 moveto
78000 47180 lineto
stroke
0 0 0 setrgbcolor
newpath
75750 46180 moveto
76750 46180 lineto
stroke
0 0 0 setrgbcolor
newpath
74250 44680 moveto
75750 46180 lineto
stroke
0 0 0 setrgbcolor
newpath
74250 42680 moveto
74250 44680 lineto
stroke
0 0 0 setrgbcolor
newpath
77250 47680 moveto
76750 48180 lineto
stroke
0 0 0 setrgbcolor
newpath
76750 48180 moveto
76250 48180 lineto
stroke
0 0 0 setrgbcolor
newpath
77250 46680 moveto
77250 47680 lineto
stroke
0 0 0 setrgbcolor
newpath
76750 46180 moveto
77250 46680 lineto
stroke
0 0 0 setrgbcolor
newpath
70250 42680 moveto
70250 45930 lineto
stroke
0 0 0 setrgbcolor
newpath
74500 50180 moveto
75250 50180 lineto
stroke
0 0 0 setrgbcolor
newpath
70250 45930 moveto
74500 50180 lineto
stroke
0 0 0 setrgbcolor
newpath
71250 42680 moveto
71250 45680 lineto
stroke
0 0 0 setrgbcolor
newpath
74750 49180 moveto
75250 49180 lineto
stroke
0 0 0 setrgbcolor
newpath
71250 45680 moveto
74750 49180 lineto
stroke
0 0 0 setrgbcolor
newpath
72250 42680 moveto
72250 45430 lineto
stroke
0 0 0 setrgbcolor
newpath
72250 45430 moveto
75000 48180 lineto
stroke
0 0 0 setrgbcolor
newpath
75000 48180 moveto
75250 48180 lineto
stroke
0 0 0 setrgbcolor
newpath
70000 36180 moveto
71250 36180 lineto
stroke
0 0 0 setrgbcolor
newpath
68500 36180 moveto
70000 36180 lineto
stroke
0 0 0 setrgbcolor
newpath
73000 37430 moveto
73000 37680 lineto
stroke
0 0 0 setrgbcolor
newpath
74250 38930 moveto
74250 39680 lineto
stroke
0 0 0 setrgbcolor
newpath
73000 37680 moveto
74250 38930 lineto
stroke
0 0 0 setrgbcolor
newpath
81250 42180 moveto
81250 43680 lineto
stroke
0 0 0 setrgbcolor
newpath
81250 38680 moveto
81250 40180 lineto
stroke
0 0 0 setrgbcolor
59.0551 setlinewidth
newpath
81968.5 30961.5 moveto
80866.1 30961.5 lineto
80866.1 33163 lineto
80866.1 33197 lineto
80800.2 33528.4 lineto
80728.6 33635.5 lineto
80728.6 37010.8 lineto
80728.6 37349.2 lineto
80608.4 37615.2 lineto
80395.6 37814.9 lineto
80169.2 37908.6 lineto
80053.1 37827.4 lineto
80053.1 37233.1 lineto
80647.7 37233.1 lineto
80728.6 37349.2 lineto
80728.6 37010.8 lineto
80647.7 37126.9 lineto
80053.1 37126.9 lineto
80053.1 36532.6 lineto
80169.2 36451.4 lineto
80395.6 36545.1 lineto
80608.4 36744.8 lineto
80728.6 37010.8 lineto
80728.6 33635.5 lineto
80612.5 33809.4 lineto
80331.5 33997.2 lineto
80000 34063.1 lineto
79946.9 34052.5 lineto
79946.9 36532.6 lineto
79946.9 37126.9 lineto
79946.9 37233.1 lineto
79946.9 37827.4 lineto
79830.8 37908.6 lineto
79604.4 37814.9 lineto
79391.6 37615.2 lineto
79271.4 37349.2 lineto
79352.3 37233.1 lineto
79946.9 37233.1 lineto
79946.9 37126.9 lineto
79352.3 37126.9 lineto
79271.4 37010.8 lineto
79391.6 36744.8 lineto
79604.4 36545.1 lineto
79830.8 36451.4 lineto
79946.9 36532.6 lineto
79946.9 34052.5 lineto
79668.5 33997.2 lineto
79492.3 33879.4 lineto
79228.6 33879.4 lineto
79228.6 35010.8 lineto
79228.6 35349.2 lineto
79108.4 35615.2 lineto
78895.6 35814.9 lineto
78669.2 35908.6 lineto
78553.1 35827.4 lineto
78553.1 35233.1 lineto
79147.7 35233.1 lineto
79228.6 35349.2 lineto
79228.6 35010.8 lineto
79147.7 35126.9 lineto
78553.1 35126.9 lineto
78553.1 34532.6 lineto
78669.2 34451.4 lineto
78895.6 34545.1 lineto
79108.4 34744.8 lineto
79228.6 35010.8 lineto
79228.6 33879.4 lineto
79007.7 33879.4 lineto
78831.5 33997.2 lineto
78500 34063.1 lineto
78446.9 34052.5 lineto
78446.9 34532.6 lineto
78446.9 35126.9 lineto
78446.9 35233.1 lineto
78446.9 35827.4 lineto
78330.8 35908.6 lineto
78104.4 35814.9 lineto
77891.6 35615.2 lineto
77771.4 35349.2 lineto
77852.3 35233.1 lineto
78446.9 35233.1 lineto
78446.9 35126.9 lineto
77852.3 35126.9 lineto
77771.4 35010.8 lineto
77891.6 34744.8 lineto
78104.4 34545.1 lineto
78330.8 34451.4 lineto
78446.9 34532.6 lineto
78446.9 34052.5 lineto
78168.5 33997.2 lineto
77992.3 33879.4 lineto
77507.7 33879.4 lineto
77331.5 33997.2 lineto
77000 34063.1 lineto
76668.5 33997.2 lineto
76492.3 33879.4 lineto
76463.8 33879.4 lineto
76523.6 34180 lineto
76460.7 34496.4 lineto
76281.4 34764.6 lineto
76013.2 34943.8 lineto
75696.8 35006.8 lineto
75303.2 35006.8 lineto
74986.8 34943.8 lineto
74890.4 34879.4 lineto
74257.7 34879.4 lineto
74081.5 34997.2 lineto
73750 35063.1 lineto
73418.5 34997.2 lineto
73242.3 34879.4 lineto
72963.8 34879.4 lineto
73023.6 35180 lineto
72960.7 35496.4 lineto
72781.4 35764.6 lineto
72513.2 35943.8 lineto
72196.8 36006.8 lineto
72098.7 36006.8 lineto
72133.1 36180 lineto
72067.2 36511.5 lineto
71923.9 36725.9 lineto
71946.9 36743.4 lineto
71946.9 37376.9 lineto
71403.2 37376.9 lineto
71307 37267.6 lineto
71381.2 37023.4 lineto
71267 37046.1 lineto
71233 37046.1 lineto
70901.6 36980.2 lineto
70750.7 36879.4 lineto
70609.6 36879.4 lineto
70513.2 36943.8 lineto
70196.8 37006.8 lineto
69803.2 37006.8 lineto
69486.8 36943.8 lineto
69390.4 36879.4 lineto
69160.7 36879.4 lineto
69244.6 36935.4 lineto
70164.7 37855.6 lineto
70750.7 37855.6 lineto
70901.6 37754.8 lineto
71233 37688.9 lineto
71267 37688.9 lineto
71340.8 37703.5 lineto
71307 37592.4 lineto
71403.2 37483.1 lineto
71946.9 37483.1 lineto
71946.9 37491 lineto
72053.1 37491 lineto
72053.1 37483.1 lineto
72061 37483.1 lineto
72061 37376.9 lineto
72053.1 37376.9 lineto
72053.1 36743.4 lineto
72160.7 36661.5 lineto
72201.7 36669.7 lineto
72403.9 36777.6 lineto
72426 36744.5 lineto
72689.3 36568.5 lineto
73000 36506.7 lineto
73310.7 36568.5 lineto
73500 36695.1 lineto
73689.3 36568.5 lineto
74000 36506.7 lineto
74310.7 36568.5 lineto
74444.6 36658 lineto
74488.2 36614.4 lineto
74488.2 36594.3 lineto
74432.8 36511.5 lineto
74366.9 36180 lineto
74432.8 35848.5 lineto
74620.6 35567.5 lineto
74901.6 35379.8 lineto
75233 35313.9 lineto
75267 35313.9 lineto
75598.4 35379.8 lineto
75879.4 35567.5 lineto
76067.2 35848.5 lineto
76133.1 36180 lineto
76067.2 36511.5 lineto
76011.8 36594.3 lineto
76011.8 36614.4 lineto
76065.6 36668.2 lineto
76309 36668.2 lineto
76387.5 36550.6 lineto
76668.5 36362.8 lineto
77000 36296.9 lineto
77331.5 36362.8 lineto
77612.5 36550.6 lineto
77720.3 36712 lineto
77720.3 36712 lineto
77791.5 36726.2 lineto
77791.5 36726.2 lineto
78038.7 36891.3 lineto
78788.7 37641.3 lineto
78788.7 37641.3 lineto
78788.7 37641.3 lineto
78953.8 37888.5 lineto
78953.8 37888.5 lineto
79000.3 38122 lineto
79011.8 38180 lineto
79011.8 38180 lineto
79011.8 38180 lineto
79011.8 40180 lineto
78953.8 40471.5 lineto
78953.8 40471.5 lineto
78788.7 40718.7 lineto
78788.7 40718.7 lineto
77673 41834.4 lineto
77831.1 41940 lineto
78009.3 42206.7 lineto
78071.8 42521.2 lineto
78071.8 42838.8 lineto
78009.3 43153.3 lineto
77973 43207.6 lineto
78067.2 43348.5 lineto
78133.1 43680 lineto
78067.2 44011.5 lineto
78041.6 44049.8 lineto
78244.6 44185.4 lineto
79244.6 45185.4 lineto
79244.6 45185.4 lineto
79396.2 45412.3 lineto
79396.2 45412.3 lineto
79405 45456.8 lineto
79449.4 45680 lineto
79449.4 45680 lineto
79449.4 48680 lineto
79396.2 48947.7 lineto
79396.2 48947.7 lineto
79345.9 49022.9 lineto
79244.6 49174.6 lineto
79244.6 49174.6 lineto
77744.6 50674.6 lineto
77517.7 50826.2 lineto
77250 50879.4 lineto
76978.4 50879.4 lineto
76978.3 51028.4 lineto
76879.9 51126.9 lineto
76303.1 51126.9 lineto
76303.1 51119 lineto
76196.9 51119 lineto
76196.9 51126.9 lineto
75879.9 51126.9 lineto
75620.1 51126.9 lineto
75303.1 51126.9 lineto
75303.1 51119 lineto
75196.9 51119 lineto
75196.9 51126.9 lineto
74620.1 51126.9 lineto
74521.7 51028.4 lineto
74521.6 50879.4 lineto
74500 50879.4 lineto
74232.3 50826.2 lineto
74005.4 50674.6 lineto
72852.2 49521.3 lineto
72852.6 49898.3 lineto
72685.1 50303.6 lineto
72375.3 50614 lineto
71970.2 50782.2 lineto
71531.7 50782.6 lineto
71126.4 50615.1 lineto
70816 50305.3 lineto
70647.8 49900.2 lineto
70647.4 49461.7 lineto
70814.9 49056.4 lineto
71124.7 48746 lineto
71529.8 48577.8 lineto
71908.4 48577.5 lineto
69755.4 46424.6 lineto
69603.8 46197.7 lineto
69550.6 45930 lineto
69550.6 43600.9 lineto
69250 43660.7 lineto
68935.5 43598.1 lineto
68668.9 43420 lineto
68490.7 43153.3 lineto
68428.2 42838.8 lineto
68428.2 42521.2 lineto
68444 42441.8 lineto
68261.8 42441.8 lineto
68261.8 46259.3 lineto
68288 46285.4 lineto
68366.1 46473.4 lineto
68366.2 46677 lineto
68366.2 47385.7 lineto
68288.5 47573.9 lineto
68189.1 47673.4 lineto
68228.6 47760.8 lineto
68147.7 47876.9 lineto
67553.1 47876.9 lineto
67553.1 47869 lineto
67446.9 47869 lineto
67446.9 47876.9 lineto
66852.3 47876.9 lineto
66847.4 47869.9 lineto
66816.4 47890.7 lineto
66500 47953.6 lineto
66261.8 47906.2 lineto
66261.8 48364.4 lineto
66628.1 48730.7 lineto
66718.6 48595.4 lineto
66962.9 48432.1 lineto
66891.6 48365.2 lineto
66771.4 48099.2 lineto
66852.3 47983.1 lineto
67446.9 47983.1 lineto
67446.9 47991 lineto
67553.1 47991 lineto
67553.1 47983.1 lineto
68147.7 47983.1 lineto
68228.6 48099.2 lineto
68108.4 48365.2 lineto
68051.9 48418.2 lineto
68637.2 48418.2 lineto
68888.6 48368.2 lineto
69111.4 48368.2 lineto
69422.1 48430 lineto
69685.5 48606 lineto
69861.5 48869.3 lineto
69923.3 49180 lineto
69861.5 49490.7 lineto
69734.9 49680 lineto
69861.5 49869.3 lineto
69923.3 50180 lineto
69861.5 50490.7 lineto
69685.5 50754 lineto
69422.1 50930 lineto
69111.4 50991.8 lineto
68888.6 50991.8 lineto
68637.2 50941.8 lineto
68343.1 50941.8 lineto
68352.2 50957.9 lineto
68366.8 51017 lineto
68285.1 51126.9 lineto
67553.1 51126.9 lineto
67553.1 51119 lineto
67446.9 51119 lineto
67446.9 51126.9 lineto
66714.9 51126.9 lineto
66633.2 51017 lineto
66647.8 50957.9 lineto
66694.8 50874.7 lineto
66694.8 50874.7 lineto
66461.3 50718.7 lineto
66461.3 50718.7 lineto
64961.3 49218.7 lineto
64796.2 48971.5 lineto
64738.2 48680 lineto
64738.2 48680 lineto
64738.2 47773.1 lineto
64722.1 47782.2 lineto
64663 47796.8 lineto
64553.1 47715.1 lineto
64553.1 46983.1 lineto
64561 46983.1 lineto
64561 46876.9 lineto
64553.1 46876.9 lineto
64553.1 46144.9 lineto
64663 46063.2 lineto
64722.1 46077.8 lineto
64738.2 46086.9 lineto
64738.2 45877.5 lineto
64669.2 45908.6 lineto
64553.1 45827.7 lineto
64553.1 45233.1 lineto
64561 45233.1 lineto
64561 45126.9 lineto
64553.1 45126.9 lineto
64553.1 44532.3 lineto
64669.2 44451.4 lineto
64756.7 44490.9 lineto
64855.4 44392 lineto
65043.4 44313.9 lineto
65247 44313.8 lineto
65288.9 44313.8 lineto
65488.2 44114.4 lineto
65488.2 43380.1 lineto
65419.2 43408.6 lineto
65303.1 43327.4 lineto
65303.1 42733.1 lineto
65311 42733.1 lineto
65311 42626.9 lineto
65303.1 42626.9 lineto
65303.1 42032.6 lineto
65419.2 41951.4 lineto
65645.6 42045.1 lineto
65645.6 42045.2 lineto
65918.5 41862.8 lineto
66250 41796.9 lineto
66581.5 41862.8 lineto
66679.9 41928.6 lineto
66633.9 41697 lineto
66633.9 41663 lineto
66699.8 41331.6 lineto
66887.5 41050.6 lineto
67168.5 40862.8 lineto
67500 40796.9 lineto
67831.5 40862.8 lineto
67914.3 40918.2 lineto
72750 40918.2 lineto
72750 40918.2 lineto
72750 40918.2 lineto
72750 40918.2 lineto
73250 40918.2 lineto
73750 40918.2 lineto
76434.4 40918.2 lineto
76827 40525.6 lineto
76750 40474.1 lineto
76564.5 40598.1 lineto
76250 40660.7 lineto
75935.5 40598.1 lineto
75750 40474.1 lineto
75564.5 40598.1 lineto
75250 40660.7 lineto
74935.5 40598.1 lineto
74750 40474.1 lineto
74564.5 40598.1 lineto
74250 40660.7 lineto
73935.5 40598.1 lineto
73668.9 40420 lineto
73648.7 40389.8 lineto
73470.2 40490.5 lineto
73412.3 40504.7 lineto
73303.1 40422.9 lineto
73303.1 39733.1 lineto
73311 39733.1 lineto
73311 39626.9 lineto
73303.1 39626.9 lineto
73303.1 39619 lineto
73196.9 39619 lineto
73196.9 39626.9 lineto
73189 39626.9 lineto
73189 39733.1 lineto
73196.9 39733.1 lineto
73196.9 40422.9 lineto
73087.7 40504.7 lineto
73029.8 40490.5 lineto
72851.3 40389.8 lineto
72831.1 40420 lineto
72564.5 40598.1 lineto
72250 40660.7 lineto
71935.5 40598.1 lineto
71750 40474.1 lineto
71564.5 40598.1 lineto
71250 40660.7 lineto
70935.5 40598.1 lineto
70750 40474.1 lineto
70564.5 40598.1 lineto
70250 40660.7 lineto
69935.5 40598.1 lineto
69863.8 40550.2 lineto
69850.3 40563.6 lineto
69662.3 40641.7 lineto
69458.6 40641.9 lineto
68838.6 40641.9 lineto
68650.5 40564.1 lineto
68506.4 40420.3 lineto
68428.3 40232.3 lineto
68428.1 40028.6 lineto
68428.1 39597.2 lineto
68210.3 39379.4 lineto
68169.3 39379.4 lineto
68228.6 39510.8 lineto
68228.6 39849.2 lineto
68108.4 40115.2 lineto
67895.6 40314.9 lineto
67669.2 40408.6 lineto
67553.1 40327.4 lineto
67553.1 39733.1 lineto
68147.7 39733.1 lineto
68228.6 39849.2 lineto
68228.6 39510.8 lineto
68147.7 39626.9 lineto
67553.1 39626.9 lineto
67553.1 39619 lineto
67446.9 39619 lineto
67446.9 39626.9 lineto
67446.9 39733.1 lineto
67446.9 40327.4 lineto
67330.8 40408.6 lineto
67104.4 40314.9 lineto
66891.6 40115.2 lineto
66771.4 39849.2 lineto
66852.3 39733.1 lineto
67446.9 39733.1 lineto
67446.9 39626.9 lineto
66852.3 39626.9 lineto
66771.4 39510.8 lineto
66830.7 39379.4 lineto
66757.7 39379.4 lineto
66581.5 39497.2 lineto
66250 39563.1 lineto
65918.5 39497.2 lineto
65750 39384.6 lineto
65581.5 39497.2 lineto
65250 39563.1 lineto
65196.9 39552.5 lineto
65196.9 42032.6 lineto
65196.9 42626.9 lineto
65196.9 42733.1 lineto
65196.9 43327.4 lineto
65080.8 43408.6 lineto
64854.4 43314.9 lineto
64641.6 43115.2 lineto
64521.4 42849.2 lineto
64602.3 42733.1 lineto
65196.9 42733.1 lineto
65196.9 42626.9 lineto
64602.3 42626.9 lineto
64521.4 42510.8 lineto
64641.6 42244.8 lineto
64854.4 42045.1 lineto
65080.8 41951.4 lineto
65196.9 42032.6 lineto
65196.9 39552.5 lineto
64918.5 39497.2 lineto
64637.5 39309.4 lineto
64449.8 39028.4 lineto
64383.9 38697 lineto
64383.9 38663 lineto
64449.8 38331.6 lineto
64637.5 38050.6 lineto
64918.5 37862.8 lineto
65250 37796.9 lineto
65581.5 37862.8 lineto
65750 37975.4 lineto
65918.5 37862.8 lineto
66250 37796.9 lineto
66581.5 37862.8 lineto
66757.7 37980.6 lineto
67839.3 37980.6 lineto
67755.4 37924.6 lineto
66505.4 36674.6 lineto
66459 36605.1 lineto
66359.7 36538.7 lineto
66163.4 36245 lineto
66094.5 35898.4 lineto
66094.5 35461.6 lineto
66163.4 35115 lineto
66300.6 34909.7 lineto
66300.6 34680 lineto
66300.6 33450.3 lineto
66163.4 33245 lineto
66094.5 32898.4 lineto
66094.5 32461.6 lineto
66163.4 32115 lineto
66359.7 31821.3 lineto
66653.5 31625 lineto
67000 31556 lineto
67346.5 31625 lineto
67640.3 31821.3 lineto
67687.7 31892.2 lineto
67699.8 31831.6 lineto
67887.5 31550.6 lineto
68168.5 31362.8 lineto
68500 31296.9 lineto
68831.5 31362.8 lineto
69112.5 31550.6 lineto
69300.2 31831.6 lineto
69366.1 32163 lineto
69366.1 32197 lineto
69306.4 32497.3 lineto
70162.3 33353.2 lineto
70196.8 33353.2 lineto
70513.2 33416.2 lineto
70609.6 33480.6 lineto
71192.1 33480.6 lineto
71147.8 33402.1 lineto
71133.2 33343 lineto
71214.9 33233.1 lineto
71946.9 33233.1 lineto
71946.9 33241 lineto
72053.1 33241 lineto
72053.1 33233.1 lineto
72785.1 33233.1 lineto
72866.8 33343 lineto
72852.2 33402.1 lineto
72807.9 33480.6 lineto
73242.3 33480.6 lineto
73418.5 33362.8 lineto
73750 33296.9 lineto
74081.5 33362.8 lineto
74257.7 33480.6 lineto
74536.2 33480.6 lineto
74476.4 33180 lineto
74539.3 32863.6 lineto
74718.6 32595.4 lineto
74746.4 32576.8 lineto
74647.8 32402.1 lineto
74633.2 32343 lineto
74714.9 32233.1 lineto
75446.9 32233.1 lineto
75446.9 32241 lineto
75553.1 32241 lineto
75553.1 32233.1 lineto
76285.1 32233.1 lineto
76366.8 32343 lineto
76352.2 32402.1 lineto
76307.9 32480.6 lineto
76492.3 32480.6 lineto
76668.5 32362.8 lineto
77000 32296.9 lineto
77331.5 32362.8 lineto
77507.7 32480.6 lineto
77992.3 32480.6 lineto
78168.5 32362.8 lineto
78500 32296.9 lineto
78831.5 32362.8 lineto
79007.7 32480.6 lineto
79492.3 32480.6 lineto
79668.5 32362.8 lineto
80000 32296.9 lineto
80331.5 32362.8 lineto
80612.5 32550.6 lineto
80800.2 32831.6 lineto
80866.1 33163 lineto
80866.1 30961.5 lineto
76366.8 30961.5 lineto
76366.8 32017 lineto
76285.1 32126.9 lineto
75553.1 32126.9 lineto
75553.1 31471.3 lineto
75730.3 31471.3 lineto
75997.5 31545.6 lineto
76215.8 31716.5 lineto
76352.2 31957.9 lineto
76366.8 32017 lineto
76366.8 30961.5 lineto
75446.9 30961.5 lineto
75446.9 31471.3 lineto
75446.9 32126.9 lineto
74714.9 32126.9 lineto
74633.2 32017 lineto
74647.8 31957.9 lineto
74784.2 31716.5 lineto
75002.5 31545.6 lineto
75269.7 31471.3 lineto
75446.9 31471.3 lineto
75446.9 30961.5 lineto
74478.6 30961.5 lineto
74478.6 32010.8 lineto
74478.6 32349.2 lineto
74358.4 32615.2 lineto
74145.6 32814.9 lineto
73919.2 32908.6 lineto
73803.1 32827.4 lineto
73803.1 32233.1 lineto
74397.7 32233.1 lineto
74478.6 32349.2 lineto
74478.6 32010.8 lineto
74397.7 32126.9 lineto
73803.1 32126.9 lineto
73803.1 31532.6 lineto
73919.2 31451.4 lineto
74145.6 31545.1 lineto
74358.4 31744.8 lineto
74478.6 32010.8 lineto
74478.6 30961.5 lineto
73696.9 30961.5 lineto
73696.9 31532.6 lineto
73696.9 32126.9 lineto
73696.9 32233.1 lineto
73696.9 32827.4 lineto
73580.8 32908.6 lineto
73354.4 32814.9 lineto
73141.6 32615.2 lineto
73021.4 32349.2 lineto
73102.3 32233.1 lineto
73696.9 32233.1 lineto
73696.9 32126.9 lineto
73102.3 32126.9 lineto
73021.4 32010.8 lineto
73141.6 31744.8 lineto
73354.4 31545.1 lineto
73580.8 31451.4 lineto
73696.9 31532.6 lineto
73696.9 30961.5 lineto
72866.8 30961.5 lineto
72866.8 33017 lineto
72785.1 33126.9 lineto
72053.1 33126.9 lineto
72053.1 32471.3 lineto
72230.3 32471.3 lineto
72497.5 32545.6 lineto
72715.8 32716.5 lineto
72852.2 32957.9 lineto
72866.8 33017 lineto
72866.8 30961.5 lineto
71946.9 30961.5 lineto
71946.9 32471.3 lineto
71946.9 33126.9 lineto
71214.9 33126.9 lineto
71133.2 33017 lineto
71147.8 32957.9 lineto
71284.2 32716.5 lineto
71502.5 32545.6 lineto
71769.7 32471.3 lineto
71946.9 32471.3 lineto
71946.9 30961.5 lineto
65787.4 30961.5 lineto
65787.4 32430 lineto
65787.4 32626.9 lineto
65787.4 32733.1 lineto
65787.4 32930 lineto
65787.4 35430 lineto
65787.4 35626.9 lineto
65787.4 35733.1 lineto
65787.4 35930 lineto
65707.1 36227.3 lineto
65519.2 36471.2 lineto
65252.2 36624.7 lineto
65175.4 36644.5 lineto
65053.1 36563.8 lineto
65053.1 35733.1 lineto
65787.4 35733.1 lineto
65787.4 35626.9 lineto
65053.1 35626.9 lineto
65053.1 34796.2 lineto
65175.4 34715.5 lineto
65252.2 34735.3 lineto
65519.2 34888.8 lineto
65707.1 35132.7 lineto
65787.4 35430 lineto
65787.4 32930 lineto
65707.1 33227.3 lineto
65519.2 33471.2 lineto
65252.2 33624.7 lineto
65175.4 33644.5 lineto
65053.1 33563.8 lineto
65053.1 32733.1 lineto
65787.4 32733.1 lineto
65787.4 32626.9 lineto
65053.1 32626.9 lineto
65053.1 31796.2 lineto
65175.4 31715.5 lineto
65252.2 31735.3 lineto
65519.2 31888.8 lineto
65707.1 32132.7 lineto
65787.4 32430 lineto
65787.4 30961.5 lineto
64946.9 30961.5 lineto
64946.9 31796.2 lineto
64946.9 32626.9 lineto
64946.9 32733.1 lineto
64946.9 33563.8 lineto
64946.9 34796.2 lineto
64946.9 35626.9 lineto
64946.9 35733.1 lineto
64946.9 36563.8 lineto
64824.6 36644.5 lineto
64747.8 36624.7 lineto
64480.8 36471.2 lineto
64292.9 36227.3 lineto
64212.6 35930 lineto
64212.6 35733.1 lineto
64946.9 35733.1 lineto
64946.9 35626.9 lineto
64212.6 35626.9 lineto
64212.6 35430 lineto
64292.9 35132.7 lineto
64480.8 34888.8 lineto
64747.8 34735.3 lineto
64824.6 34715.5 lineto
64946.9 34796.2 lineto
64946.9 33563.8 lineto
64824.6 33644.5 lineto
64747.8 33624.7 lineto
64480.8 33471.2 lineto
64292.9 33227.3 lineto
64212.6 32930 lineto
64212.6 32733.1 lineto
64946.9 32733.1 lineto
64946.9 32626.9 lineto
64212.6 32626.9 lineto
64212.6 32430 lineto
64292.9 32132.7 lineto
64480.8 31888.8 lineto
64747.8 31735.3 lineto
64824.6 31715.5 lineto
64946.9 31796.2 lineto
64946.9 30961.5 lineto
64031.5 30961.5 lineto
64031.5 44607.1 lineto
64064.8 44571.6 lineto
64330.8 44451.4 lineto
64446.9 44532.3 lineto
64446.9 45126.9 lineto
64439 45126.9 lineto
64439 45233.1 lineto
64446.9 45233.1 lineto
64446.9 45827.7 lineto
64330.8 45908.6 lineto
64064.8 45788.4 lineto
64031.5 45752.9 lineto
64031.5 46220.5 lineto
64036.5 46214.2 lineto
64277.9 46077.8 lineto
64337 46063.2 lineto
64446.9 46144.9 lineto
64446.9 46876.9 lineto
64439 46876.9 lineto
64439 46983.1 lineto
64446.9 46983.1 lineto
64446.9 47715.1 lineto
64337 47796.8 lineto
64277.9 47782.2 lineto
64036.5 47645.8 lineto
64031.5 47639.5 lineto
64031.5 51648.5 lineto
66790.5 51648.5 lineto
66784.2 51643.5 lineto
66647.8 51402.1 lineto
66633.2 51343 lineto
66714.9 51233.1 lineto
67446.9 51233.1 lineto
67446.9 51241 lineto
67553.1 51241 lineto
67553.1 51233.1 lineto
68285.1 51233.1 lineto
68366.8 51343 lineto
68352.2 51402.1 lineto
68215.8 51643.5 lineto
68209.5 51648.5 lineto
74544.7 51648.5 lineto
74521.6 51592.6 lineto
74521.7 51331.6 lineto
74620.1 51233.1 lineto
75196.9 51233.1 lineto
75196.9 51241 lineto
75303.1 51241 lineto
75303.1 51233.1 lineto
75620.1 51233.1 lineto
75879.9 51233.1 lineto
76196.9 51233.1 lineto
76196.9 51241 lineto
76303.1 51241 lineto
76303.1 51233.1 lineto
76879.9 51233.1 lineto
76978.3 51331.6 lineto
76978.4 51592.6 lineto
76955.3 51648.5 lineto
80315 51648.5 lineto
80315 43589 lineto
80385 43589 lineto
80432.8 43348.5 lineto
80550.6 43172.3 lineto
80550.6 42913 lineto
80462 42824.6 lineto
80383.9 42636.6 lineto
80383.8 42433 lineto
80383.8 41724.3 lineto
80461.5 41536.1 lineto
80560.9 41436.6 lineto
80521.4 41349.2 lineto
80602.3 41233.1 lineto
81196.9 41233.1 lineto
81196.9 41241 lineto
81303.1 41241 lineto
81303.1 41233.1 lineto
81311 41233.1 lineto
81311 41126.9 lineto
81303.1 41126.9 lineto
81303.1 41119 lineto
81196.9 41119 lineto
81196.9 41126.9 lineto
80602.3 41126.9 lineto
80521.4 41010.8 lineto
80625.5 40780.4 lineto
80516.1 40671.3 lineto
80384 40353 lineto
80383.7 40008.5 lineto
80515.3 39690 lineto
80550.6 39654.7 lineto
80550.6 39187.7 lineto
80432.8 39011.5 lineto
80366.9 38680 lineto
80432.8 38348.5 lineto
80620.6 38067.5 lineto
80901.6 37879.8 lineto
81233 37813.9 lineto
81267 37813.9 lineto
81598.4 37879.8 lineto
81879.4 38067.5 lineto
81968.5 38200.9 lineto
81968.5 32180 lineto
81968.5 30961.5 lineto
poly1
393.701 setlinewidth
newpath
81968.5 30961.5 moveto
80866.1 30961.5 lineto
80866.1 33163 lineto
80866.1 33197 lineto
80800.2 33528.4 lineto
80728.6 33635.5 lineto
80728.6 37010.8 lineto
80728.6 37349.2 lineto
80608.4 37615.2 lineto
80395.6 37814.9 lineto
80169.2 37908.6 lineto
80053.1 37827.4 lineto
80053.1 37233.1 lineto
80647.7 37233.1 lineto
80728.6 37349.2 lineto
80728.6 37010.8 lineto
80647.7 37126.9 lineto
80053.1 37126.9 lineto
80053.1 36532.6 lineto
80169.2 36451.4 lineto
80395.6 36545.1 lineto
80608.4 36744.8 lineto
80728.6 37010.8 lineto
80728.6 33635.5 lineto
80612.5 33809.4 lineto
80331.5 33997.2 lineto
80000 34063.1 lineto
79946.9 34052.5 lineto
79946.9 36532.6 lineto
79946.9 37126.9 lineto
79946.9 37233.1 lineto
79946.9 37827.4 lineto
79830.8 37908.6 lineto
79604.4 37814.9 lineto
79391.6 37615.2 lineto
79271.4 37349.2 lineto
79352.3 37233.1 lineto
79946.9 37233.1 lineto
79946.9 37126.9 lineto
79352.3 37126.9 lineto
79271.4 37010.8 lineto
79391.6 36744.8 lineto
79604.4 36545.1 lineto
79830.8 36451.4 lineto
79946.9 36532.6 lineto
79946.9 34052.5 lineto
79668.5 33997.2 lineto
79492.3 33879.4 lineto
79228.6 33879.4 lineto
79228.6 35010.8 lineto
79228.6 35349.2 lineto
79108.4 35615.2 lineto
78895.6 35814.9 lineto
78669.2 35908.6 lineto
78553.1 35827.4 lineto
78553.1 35233.1 lineto
79147.7 35233.1 lineto
79228.6 35349.2 lineto
79228.6 35010.8 lineto
79147.7 35126.9 lineto
78553.1 35126.9 lineto
78553.1 34532.6 lineto
78669.2 34451.4 lineto
78895.6 34545.1 lineto
79108.4 34744.8 lineto
79228.6 35010.8 lineto
79228.6 33879.4 lineto
79007.7 33879.4 lineto
78831.5 33997.2 lineto
78500 34063.1 lineto
78446.9 34052.5 lineto
78446.9 34532.6 lineto
78446.9 35126.9 lineto
78446.9 35233.1 lineto
78446.9 35827.4 lineto
78330.8 35908.6 lineto
78104.4 35814.9 lineto
77891.6 35615.2 lineto
77771.4 35349.2 lineto
77852.3 35233.1 lineto
78446.9 35233.1 lineto
78446.9 35126.9 lineto
77852.3 35126.9 lineto
77771.4 35010.8 lineto
77891.6 34744.8 lineto
78104.4 34545.1 lineto
78330.8 34451.4 lineto
78446.9 34532.6 lineto
78446.9 34052.5 lineto
78168.5 33997.2 lineto
77992.3 33879.4 lineto
77507.7 33879.4 lineto
77331.5 33997.2 lineto
77000 34063.1 lineto
76668.5 33997.2 lineto
76492.3 33879.4 lineto
76463.8 33879.4 lineto
76523.6 34180 lineto
76460.7 34496.4 lineto
76281.4 34764.6 lineto
76013.2 34943.8 lineto
75696.8 35006.8 lineto
75303.2 35006.8 lineto
74986.8 34943.8 lineto
74890.4 34879.4 lineto
74257.7 34879.4 lineto
74081.5 34997.2 lineto
73750 35063.1 lineto
73418.5 34997.2 lineto
73242.3 34879.4 lineto
72963.8 34879.4 lineto
73023.6 35180 lineto
72960.7 35496.4 lineto
72781.4 35764.6 lineto
72513.2 35943.8 lineto
72196.8 36006.8 lineto
72098.7 36006.8 lineto
72133.1 36180 lineto
72067.2 36511.5 lineto
71923.9 36725.9 lineto
71946.9 36743.4 lineto
71946.9 37376.9 lineto
71403.2 37376.9 lineto
71307 37267.6 lineto
71381.2 37023.4 lineto
71267 37046.1 lineto
71233 37046.1 lineto
70901.6 36980.2 lineto
70750.7 36879.4 lineto
70609.6 36879.4 lineto
70513.2 36943.8 lineto
70196.8 37006.8 lineto
69803.2 37006.8 lineto
69486.8 36943.8 lineto
69390.4 36879.4 lineto
69160.7 36879.4 lineto
69244.6 36935.4 lineto
70164.7 37855.6 lineto
70750.7 37855.6 lineto
70901.6 37754.8 lineto
71233 37688.9 lineto
71267 37688.9 lineto
71340.8 37703.5 lineto
71307 37592.4 lineto
71403.2 37483.1 lineto
71946.9 37483.1 lineto
71946.9 37491 lineto
72053.1 37491 lineto
72053.1 37483.1 lineto
72061 37483.1 lineto
72061 37376.9 lineto
72053.1 37376.9 lineto
72053.1 36743.4 lineto
72160.7 36661.5 lineto
72201.7 36669.7 lineto
72403.9 36777.6 lineto
72426 36744.5 lineto
72689.3 36568.5 lineto
73000 36506.7 lineto
73310.7 36568.5 lineto
73500 36695.1 lineto
73689.3 36568.5 lineto
74000 36506.7 lineto
74310.7 36568.5 lineto
74444.6 36658 lineto
74488.2 36614.4 lineto
74488.2 36594.3 lineto
74432.8 36511.5 lineto
74366.9 36180 lineto
74432.8 35848.5 lineto
74620.6 35567.5 lineto
74901.6 35379.8 lineto
75233 35313.9 lineto
75267 35313.9 lineto
75598.4 35379.8 lineto
75879.4 35567.5 lineto
76067.2 35848.5 lineto
76133.1 36180 lineto
76067.2 36511.5 lineto
76011.8 36594.3 lineto
76011.8 36614.4 lineto
76065.6 36668.2 lineto
76309 36668.2 lineto
76387.5 36550.6 lineto
76668.5 36362.8 lineto
77000 36296.9 lineto
77331.5 36362.8 lineto
77612.5 36550.6 lineto
77720.3 36712 lineto
77720.3 36712 lineto
77791.5 36726.2 lineto
77791.5 36726.2 lineto
78038.7 36891.3 lineto
78788.7 37641.3 lineto
78788.7 37641.3 lineto
78788.7 37641.3 lineto
78953.8 37888.5 lineto
78953.8 37888.5 lineto
79000.3 38122 lineto
79011.8 38180 lineto
79011.8 38180 lineto
79011.8 38180 lineto
79011.8 40180 lineto
78953.8 40471.5 lineto
78953.8 40471.5 lineto
78788.7 40718.7 lineto
78788.7 40718.7 lineto
77673 41834.4 lineto
77831.1 41940 lineto
78009.3 42206.7 lineto
78071.8 42521.2 lineto
78071.8 42838.8 lineto
78009.3 43153.3 lineto
77973 43207.6 lineto
78067.2 43348.5 lineto
78133.1 43680 lineto
78067.2 44011.5 lineto
78041.6 44049.8 lineto
78244.6 44185.4 lineto
79244.6 45185.4 lineto
79244.6 45185.4 lineto
79396.2 45412.3 lineto
79396.2 45412.3 lineto
79405 45456.8 lineto
79449.4 45680 lineto
79449.4 45680 lineto
79449.4 48680 lineto
79396.2 48947.7 lineto
79396.2 48947.7 lineto
79345.9 49022.9 lineto
79244.6 49174.6 lineto
79244.6 49174.6 lineto
77744.6 50674.6 lineto
77517.7 50826.2 lineto
77250 50879.4 lineto
76978.4 50879.4 lineto
76978.3 51028.4 lineto
76879.9 51126.9 lineto
76303.1 51126.9 lineto
76303.1 51119 lineto
76196.9 51119 lineto
76196.9 51126.9 lineto
75879.9 51126.9 lineto
75620.1 51126.9 lineto
75303.1 51126.9 lineto
75303.1 51119 lineto
75196.9 51119 lineto
75196.9 51126.9 lineto
74620.1 51126.9 lineto
74521.7 51028.4 lineto
74521.6 50879.4 lineto
74500 50879.4 lineto
74232.3 50826.2 lineto
74005.4 50674.6 lineto
72852.2 49521.3 lineto
72852.6 49898.3 lineto
72685.1 50303.6 lineto
72375.3 50614 lineto
71970.2 50782.2 lineto
71531.7 50782.6 lineto
71126.4 50615.1 lineto
70816 50305.3 lineto
70647.8 49900.2 lineto
70647.4 49461.7 lineto
70814.9 49056.4 lineto
71124.7 48746 lineto
71529.8 48577.8 lineto
71908.4 48577.5 lineto
69755.4 46424.6 lineto
69603.8 46197.7 lineto
69550.6 45930 lineto
69550.6 43600.9 lineto
69250 43660.7 lineto
68935.5 43598.1 lineto
68668.9 43420 lineto
68490.7 43153.3 lineto
68428.2 42838.8 lineto
68428.2 42521.2 lineto
68444 42441.8 lineto
68261.8 42441.8 lineto
68261.8 46259.3 lineto
68288 46285.4 lineto
68366.1 46473.4 lineto
68366.2 46677 lineto
68366.2 47385.7 lineto
68288.5 47573.9 lineto
68189.1 47673.4 lineto
68228.6 47760.8 lineto
68147.7 47876.9 lineto
67553.1 47876.9 lineto
67553.1 47869 lineto
67446.9 47869 lineto
67446.9 47876.9 lineto
66852.3 47876.9 lineto
66847.4 47869.9 lineto
66816.4 47890.7 lineto
66500 47953.6 lineto
66261.8 47906.2 lineto
66261.8 48364.4 lineto
66628.1 48730.7 lineto
66718.6 48595.4 lineto
66962.9 48432.1 lineto
66891.6 48365.2 lineto
66771.4 48099.2 lineto
66852.3 47983.1 lineto
67446.9 47983.1 lineto
67446.9 47991 lineto
67553.1 47991 lineto
67553.1 47983.1 lineto
68147.7 47983.1 lineto
68228.6 48099.2 lineto
68108.4 48365.2 lineto
68051.9 48418.2 lineto
68637.2 48418.2 lineto
68888.6 48368.2 lineto
69111.4 48368.2 lineto
69422.1 48430 lineto
69685.5 48606 lineto
69861.5 48869.3 lineto
69923.3 49180 lineto
69861.5 49490.7 lineto
69734.9 49680 lineto
69861.5 49869.3 lineto
69923.3 50180 lineto
69861.5 50490.7 lineto
69685.5 50754 lineto
69422.1 50930 lineto
69111.4 50991.8 lineto
68888.6 50991.8 lineto
68637.2 50941.8 lineto
68343.1 50941.8 lineto
68352.2 50957.9 lineto
68366.8 51017 lineto
68285.1 51126.9 lineto
67553.1 51126.9 lineto
67553.1 51119 lineto
67446.9 51119 lineto
67446.9 51126.9 lineto
66714.9 51126.9 lineto
66633.2 51017 lineto
66647.8 50957.9 lineto
66694.8 50874.7 lineto
66694.8 50874.7 lineto
66461.3 50718.7 lineto
66461.3 50718.7 lineto
64961.3 49218.7 lineto
64796.2 48971.5 lineto
64738.2 48680 lineto
64738.2 48680 lineto
64738.2 47773.1 lineto
64722.1 47782.2 lineto
64663 47796.8 lineto
64553.1 47715.1 lineto
64553.1 46983.1 lineto
64561 46983.1 lineto
64561 46876.9 lineto
64553.1 46876.9 lineto
64553.1 46144.9 lineto
64663 46063.2 lineto
64722.1 46077.8 lineto
64738.2 46086.9 lineto
64738.2 45877.5 lineto
64669.2 45908.6 lineto
64553.1 45827.7 lineto
64553.1 45233.1 lineto
64561 45233.1 lineto
64561 45126.9 lineto
64553.1 45126.9 lineto
64553.1 44532.3 lineto
64669.2 44451.4 lineto
64756.7 44490.9 lineto
64855.4 44392 lineto
65043.4 44313.9 lineto
65247 44313.8 lineto
65288.9 44313.8 lineto
65488.2 44114.4 lineto
65488.2 43380.1 lineto
65419.2 43408.6 lineto
65303.1 43327.4 lineto
65303.1 42733.1 lineto
65311 42733.1 lineto
65311 42626.9 lineto
65303.1 42626.9 lineto
65303.1 42032.6 lineto
65419.2 41951.4 lineto
65645.6 42045.1 lineto
65645.6 42045.2 lineto
65918.5 41862.8 lineto
66250 41796.9 lineto
66581.5 41862.8 lineto
66679.9 41928.6 lineto
66633.9 41697 lineto
66633.9 41663 lineto
66699.8 41331.6 lineto
66887.5 41050.6 lineto
67168.5 40862.8 lineto
67500 40796.9 lineto
67831.5 40862.8 lineto
67914.3 40918.2 lineto
72750 40918.2 lineto
72750 40918.2 lineto
72750 40918.2 lineto
72750 40918.2 lineto
73250 40918.2 lineto
73750 40918.2 lineto
76434.4 40918.2 lineto
76827 40525.6 lineto
76750 40474.1 lineto
76564.5 40598.1 lineto
76250 40660.7 lineto
75935.5 40598.1 lineto
75750 40474.1 lineto
75564.5 40598.1 lineto
75250 40660.7 lineto
74935.5 40598.1 lineto
74750 40474.1 lineto
74564.5 40598.1 lineto
74250 40660.7 lineto
73935.5 40598.1 lineto
73668.9 40420 lineto
73648.7 40389.8 lineto
73470.2 40490.5 lineto
73412.3 40504.7 lineto
73303.1 40422.9 lineto
73303.1 39733.1 lineto
73311 39733.1 lineto
73311 39626.9 lineto
73303.1 39626.9 lineto
73303.1 39619 lineto
73196.9 39619 lineto
73196.9 39626.9 lineto
73189 39626.9 lineto
73189 39733.1 lineto
73196.9 39733.1 lineto
73196.9 40422.9 lineto
73087.7 40504.7 lineto
73029.8 40490.5 lineto
72851.3 40389.8 lineto
72831.1 40420 lineto
72564.5 40598.1 lineto
72250 40660.7 lineto
71935.5 40598.1 lineto
71750 40474.1 lineto
71564.5 40598.1 lineto
71250 40660.7 lineto
70935.5 40598.1 lineto
70750 40474.1 lineto
70564.5 40598.1 lineto
70250 40660.7 lineto
69935.5 40598.1 lineto
69863.8 40550.2 lineto
69850.3 40563.6 lineto
69662.3 40641.7 lineto
69458.6 40641.9 lineto
68838.6 40641.9 lineto
68650.5 40564.1 lineto
68506.4 40420.3 lineto
68428.3 40232.3 lineto
68428.1 40028.6 lineto
68428.1 39597.2 lineto
68210.3 39379.4 lineto
68169.3 39379.4 lineto
68228.6 39510.8 lineto
68228.6 39849.2 lineto
68108.4 40115.2 lineto
67895.6 40314.9 lineto
67669.2 40408.6 lineto
67553.1 40327.4 lineto
67553.1 39733.1 lineto
68147.7 39733.1 lineto
68228.6 39849.2 lineto
68228.6 39510.8 lineto
68147.7 39626.9 lineto
67553.1 39626.9 lineto
67553.1 39619 lineto
67446.9 39619 lineto
67446.9 39626.9 lineto
67446.9 39733.1 lineto
67446.9 40327.4 lineto
67330.8 40408.6 lineto
67104.4 40314.9 lineto
66891.6 40115.2 lineto
66771.4 39849.2 lineto
66852.3 39733.1 lineto
67446.9 39733.1 lineto
67446.9 39626.9 lineto
66852.3 39626.9 lineto
66771.4 39510.8 lineto
66830.7 39379.4 lineto
66757.7 39379.4 lineto
66581.5 39497.2 lineto
66250 39563.1 lineto
65918.5 39497.2 lineto
65750 39384.6 lineto
65581.5 39497.2 lineto
65250 39563.1 lineto
65196.9 39552.5 lineto
65196.9 42032.6 lineto
65196.9 42626.9 lineto
65196.9 42733.1 lineto
65196.9 43327.4 lineto
65080.8 43408.6 lineto
64854.4 43314.9 lineto
64641.6 43115.2 lineto
64521.4 42849.2 lineto
64602.3 42733.1 lineto
65196.9 42733.1 lineto
65196.9 42626.9 lineto
64602.3 42626.9 lineto
64521.4 42510.8 lineto
64641.6 42244.8 lineto
64854.4 42045.1 lineto
65080.8 41951.4 lineto
65196.9 42032.6 lineto
65196.9 39552.5 lineto
64918.5 39497.2 lineto
64637.5 39309.4 lineto
64449.8 39028.4 lineto
64383.9 38697 lineto
64383.9 38663 lineto
64449.8 38331.6 lineto
64637.5 38050.6 lineto
64918.5 37862.8 lineto
65250 37796.9 lineto
65581.5 37862.8 lineto
65750 37975.4 lineto
65918.5 37862.8 lineto
66250 37796.9 lineto
66581.5 37862.8 lineto
66757.7 37980.6 lineto
67839.3 37980.6 lineto
67755.4 37924.6 lineto
66505.4 36674.6 lineto
66459 36605.1 lineto
66359.7 36538.7 lineto
66163.4 36245 lineto
66094.5 35898.4 lineto
66094.5 35461.6 lineto
66163.4 35115 lineto
66300.6 34909.7 lineto
66300.6 34680 lineto
66300.6 33450.3 lineto
66163.4 33245 lineto
66094.5 32898.4 lineto
66094.5 32461.6 lineto
66163.4 32115 lineto
66359.7 31821.3 lineto
66653.5 31625 lineto
67000 31556 lineto
67346.5 31625 lineto
67640.3 31821.3 lineto
67687.7 31892.2 lineto
67699.8 31831.6 lineto
67887.5 31550.6 lineto
68168.5 31362.8 lineto
68500 31296.9 lineto
68831.5 31362.8 lineto
69112.5 31550.6 lineto
69300.2 31831.6 lineto
69366.1 32163 lineto
69366.1 32197 lineto
69306.4 32497.3 lineto
70162.3 33353.2 lineto
70196.8 33353.2 lineto
70513.2 33416.2 lineto
70609.6 33480.6 lineto
71192.1 33480.6 lineto
71147.8 33402.1 lineto
71133.2 33343 lineto
71214.9 33233.1 lineto
71946.9 33233.1 lineto
71946.9 33241 lineto
72053.1 33241 lineto
72053.1 33233.1 lineto
72785.1 33233.1 lineto
72866.8 33343 lineto
72852.2 33402.1 lineto
72807.9 33480.6 lineto
73242.3 33480.6 lineto
73418.5 33362.8 lineto
73750 33296.9 lineto
74081.5 33362.8 lineto
74257.7 33480.6 lineto
74536.2 33480.6 lineto
74476.4 33180 lineto
74539.3 32863.6 lineto
74718.6 32595.4 lineto
74746.4 32576.8 lineto
74647.8 32402.1 lineto
74633.2 32343 lineto
74714.9 32233.1 lineto
75446.9 32233.1 lineto
75446.9 32241 lineto
75553.1 32241 lineto
75553.1 32233.1 lineto
76285.1 32233.1 lineto
76366.8 32343 lineto
76352.2 32402.1 lineto
76307.9 32480.6 lineto
76492.3 32480.6 lineto
76668.5 32362.8 lineto
77000 32296.9 lineto
77331.5 32362.8 lineto
77507.7 32480.6 lineto
77992.3 32480.6 lineto
78168.5 32362.8 lineto
78500 32296.9 lineto
78831.5 32362.8 lineto
79007.7 32480.6 lineto
79492.3 32480.6 lineto
79668.5 32362.8 lineto
80000 32296.9 lineto
80331.5 32362.8 lineto
80612.5 32550.6 lineto
80800.2 32831.6 lineto
80866.1 33163 lineto
80866.1 30961.5 lineto
76366.8 30961.5 lineto
76366.8 32017 lineto
76285.1 32126.9 lineto
75553.1 32126.9 lineto
75553.1 31471.3 lineto
75730.3 31471.3 lineto
75997.5 31545.6 lineto
76215.8 31716.5 lineto
76352.2 31957.9 lineto
76366.8 32017 lineto
76366.8 30961.5 lineto
75446.9 30961.5 lineto
75446.9 31471.3 lineto
75446.9 32126.9 lineto
74714.9 32126.9 lineto
74633.2 32017 lineto
74647.8 31957.9 lineto
74784.2 31716.5 lineto
75002.5 31545.6 lineto
75269.7 31471.3 lineto
75446.9 31471.3 lineto
75446.9 30961.5 lineto
74478.6 30961.5 lineto
74478.6 32010.8 lineto
74478.6 32349.2 lineto
74358.4 32615.2 lineto
74145.6 32814.9 lineto
73919.2 32908.6 lineto
73803.1 32827.4 lineto
73803.1 32233.1 lineto
74397.7 32233.1 lineto
74478.6 32349.2 lineto
74478.6 32010.8 lineto
74397.7 32126.9 lineto
73803.1 32126.9 lineto
73803.1 31532.6 lineto
73919.2 31451.4 lineto
74145.6 31545.1 lineto
74358.4 31744.8 lineto
74478.6 32010.8 lineto
74478.6 30961.5 lineto
73696.9 30961.5 lineto
73696.9 31532.6 lineto
73696.9 32126.9 lineto
73696.9 32233.1 lineto
73696.9 32827.4 lineto
73580.8 32908.6 lineto
73354.4 32814.9 lineto
73141.6 32615.2 lineto
73021.4 32349.2 lineto
73102.3 32233.1 lineto
73696.9 32233.1 lineto
73696.9 32126.9 lineto
73102.3 32126.9 lineto
73021.4 32010.8 lineto
73141.6 31744.8 lineto
73354.4 31545.1 lineto
73580.8 31451.4 lineto
73696.9 31532.6 lineto
73696.9 30961.5 lineto
72866.8 30961.5 lineto
72866.8 33017 lineto
72785.1 33126.9 lineto
72053.1 33126.9 lineto
72053.1 32471.3 lineto
72230.3 32471.3 lineto
72497.5 32545.6 lineto
72715.8 32716.5 lineto
72852.2 32957.9 lineto
72866.8 33017 lineto
72866.8 30961.5 lineto
71946.9 30961.5 lineto
71946.9 32471.3 lineto
71946.9 33126.9 lineto
71214.9 33126.9 lineto
71133.2 33017 lineto
71147.8 32957.9 lineto
71284.2 32716.5 lineto
71502.5 32545.6 lineto
71769.7 32471.3 lineto
71946.9 32471.3 lineto
71946.9 30961.5 lineto
65787.4 30961.5 lineto
65787.4 32430 lineto
65787.4 32626.9 lineto
65787.4 32733.1 lineto
65787.4 32930 lineto
65787.4 35430 lineto
65787.4 35626.9 lineto
65787.4 35733.1 lineto
65787.4 35930 lineto
65707.1 36227.3 lineto
65519.2 36471.2 lineto
65252.2 36624.7 lineto
65175.4 36644.5 lineto
65053.1 36563.8 lineto
65053.1 35733.1 lineto
65787.4 35733.1 lineto
65787.4 35626.9 lineto
65053.1 35626.9 lineto
65053.1 34796.2 lineto
65175.4 34715.5 lineto
65252.2 34735.3 lineto
65519.2 34888.8 lineto
65707.1 35132.7 lineto
65787.4 35430 lineto
65787.4 32930 lineto
65707.1 33227.3 lineto
65519.2 33471.2 lineto
65252.2 33624.7 lineto
65175.4 33644.5 lineto
65053.1 33563.8 lineto
65053.1 32733.1 lineto
65787.4 32733.1 lineto
65787.4 32626.9 lineto
65053.1 32626.9 lineto
65053.1 31796.2 lineto
65175.4 31715.5 lineto
65252.2 31735.3 lineto
65519.2 31888.8 lineto
65707.1 32132.7 lineto
65787.4 32430 lineto
65787.4 30961.5 lineto
64946.9 30961.5 lineto
64946.9 31796.2 lineto
64946.9 32626.9 lineto
64946.9 32733.1 lineto
64946.9 33563.8 lineto
64946.9 34796.2 lineto
64946.9 35626.9 lineto
64946.9 35733.1 lineto
64946.9 36563.8 lineto
64824.6 36644.5 lineto
64747.8 36624.7 lineto
64480.8 36471.2 lineto
64292.9 36227.3 lineto
64212.6 35930 lineto
64212.6 35733.1 lineto
64946.9 35733.1 lineto
64946.9 35626.9 lineto
64212.6 35626.9 lineto
64212.6 35430 lineto
64292.9 35132.7 lineto
64480.8 34888.8 lineto
64747.8 34735.3 lineto
64824.6 34715.5 lineto
64946.9 34796.2 lineto
64946.9 33563.8 lineto
64824.6 33644.5 lineto
64747.8 33624.7 lineto
64480.8 33471.2 lineto
64292.9 33227.3 lineto
64212.6 32930 lineto
64212.6 32733.1 lineto
64946.9 32733.1 lineto
64946.9 32626.9 lineto
64212.6 32626.9 lineto
64212.6 32430 lineto
64292.9 32132.7 lineto
64480.8 31888.8 lineto
64747.8 31735.3 lineto
64824.6 31715.5 lineto
64946.9 31796.2 lineto
64946.9 30961.5 lineto
64031.5 30961.5 lineto
64031.5 44607.1 lineto
64064.8 44571.6 lineto
64330.8 44451.4 lineto
64446.9 44532.3 lineto
64446.9 45126.9 lineto
64439 45126.9 lineto
64439 45233.1 lineto
64446.9 45233.1 lineto
64446.9 45827.7 lineto
64330.8 45908.6 lineto
64064.8 45788.4 lineto
64031.5 45752.9 lineto
64031.5 46220.5 lineto
64036.5 46214.2 lineto
64277.9 46077.8 lineto
64337 46063.2 lineto
64446.9 46144.9 lineto
64446.9 46876.9 lineto
64439 46876.9 lineto
64439 46983.1 lineto
64446.9 46983.1 lineto
64446.9 47715.1 lineto
64337 47796.8 lineto
64277.9 47782.2 lineto
64036.5 47645.8 lineto
64031.5 47639.5 lineto
64031.5 51648.5 lineto
66790.5 51648.5 lineto
66784.2 51643.5 lineto
66647.8 51402.1 lineto
66633.2 51343 lineto
66714.9 51233.1 lineto
67446.9 51233.1 lineto
67446.9 51241 lineto
67553.1 51241 lineto
67553.1 51233.1 lineto
68285.1 51233.1 lineto
68366.8 51343 lineto
68352.2 51402.1 lineto
68215.8 51643.5 lineto
68209.5 51648.5 lineto
74544.7 51648.5 lineto
74521.6 51592.6 lineto
74521.7 51331.6 lineto
74620.1 51233.1 lineto
75196.9 51233.1 lineto
75196.9 51241 lineto
75303.1 51241 lineto
75303.1 51233.1 lineto
75620.1 51233.1 lineto
75879.9 51233.1 lineto
76196.9 51233.1 lineto
76196.9 51241 lineto
76303.1 51241 lineto
76303.1 51233.1 lineto
76879.9 51233.1 lineto
76978.3 51331.6 lineto
76978.4 51592.6 lineto
76955.3 51648.5 lineto
80315 51648.5 lineto
80315 43589 lineto
80385 43589 lineto
80432.8 43348.5 lineto
80550.6 43172.3 lineto
80550.6 42913 lineto
80462 42824.6 lineto
80383.9 42636.6 lineto
80383.8 42433 lineto
80383.8 41724.3 lineto
80461.5 41536.1 lineto
80560.9 41436.6 lineto
80521.4 41349.2 lineto
80602.3 41233.1 lineto
81196.9 41233.1 lineto
81196.9 41241 lineto
81303.1 41241 lineto
81303.1 41233.1 lineto
81311 41233.1 lineto
81311 41126.9 lineto
81303.1 41126.9 lineto
81303.1 41119 lineto
81196.9 41119 lineto
81196.9 41126.9 lineto
80602.3 41126.9 lineto
80521.4 41010.8 lineto
80625.5 40780.4 lineto
80516.1 40671.3 lineto
80384 40353 lineto
80383.7 40008.5 lineto
80515.3 39690 lineto
80550.6 39654.7 lineto
80550.6 39187.7 lineto
80432.8 39011.5 lineto
80366.9 38680 lineto
80432.8 38348.5 lineto
80620.6 38067.5 lineto
80901.6 37879.8 lineto
81233 37813.9 lineto
81267 37813.9 lineto
81598.4 37879.8 lineto
81879.4 38067.5 lineto
81968.5 38200.9 lineto
81968.5 32180 lineto
81968.5 30961.5 lineto
poly0
1 1 1 setrgbcolor
59.0551 setlinewidth
64500 46930 39.3701 cir1
65500 46930 39.3701 cir1
66500 46930 39.3701 cir1
74000 37430 39.3701 cir1
73000 37430 39.3701 cir1
72000 37430 39.3701 cir1
69250 39680 39.3701 cir1
70250 39680 39.3701 cir1
71250 39680 39.3701 cir1
72250 39680 39.3701 cir1
73250 39680 39.3701 cir1
74250 39680 39.3701 cir1
75250 39680 39.3701 cir1
76250 39680 39.3701 cir1
77250 39680 39.3701 cir1
77250 42680 39.3701 cir1
76250 42680 39.3701 cir1
75250 42680 39.3701 cir1
74250 42680 39.3701 cir1
73250 42680 39.3701 cir1
72250 42680 39.3701 cir1
71250 42680 39.3701 cir1
70250 42680 39.3701 cir1
69250 42680 39.3701 cir1
65000 35680 39.3701 cir1
67000 35680 39.3701 cir1
65000 32680 39.3701 cir1
67000 32680 39.3701 cir1
65250 42680 39.3701 cir1
65250 38680 39.3701 cir1
67500 41680 39.3701 cir1
67500 39680 39.3701 cir1
73750 34180 39.3701 cir1
73750 32180 39.3701 cir1
78500 33180 39.3701 cir1
78500 35180 39.3701 cir1
80000 33180 39.3701 cir1
80000 37180 39.3701 cir1
77000 37180 39.3701 cir1
77000 33180 39.3701 cir1
68500 36180 39.3701 cir1
68500 32180 39.3701 cir1
71250 36180 39.3701 cir1
75250 36180 39.3701 cir1
75500 32180 39.3701 cir1
75500 33180 39.3701 cir1
75500 34180 39.3701 cir1
70000 36180 39.3701 cir1
70000 35180 39.3701 cir1
70000 34180 39.3701 cir1
72000 33180 39.3701 cir1
72000 34180 39.3701 cir1
72000 35180 39.3701 cir1
67500 49180 39.3701 cir1
67500 50180 39.3701 cir1
67500 51180 39.3701 cir1
75250 38555 39.3701 cir1
71250 38555 39.3701 cir1
66250 42680 39.3701 cir1
66250 38680 39.3701 cir1
71750 49680 39.3701 cir1
86750 35430 39.3701 cir1
69000 49180 39.3701 cir1
69000 50180 39.3701 cir1
76250 47180 39.3701 cir1
75250 47180 39.3701 cir1
76250 48180 39.3701 cir1
75250 48180 39.3701 cir1
76250 49180 39.3701 cir1
75250 49180 39.3701 cir1
76250 50180 39.3701 cir1
75250 50180 39.3701 cir1
76250 51180 39.3701 cir1
75250 51180 39.3701 cir1
67500 46930 39.3701 cir1
67500 47930 39.3701 cir1
81250 42180 39.3701 cir1
81250 41180 39.3701 cir1
81250 40180 39.3701 cir1
77250 43680 39.3701 cir1
81250 43680 39.3701 cir1
77250 38680 39.3701 cir1
81250 38680 39.3701 cir1
65500 45180 39.3701 cir1
64500 45180 39.3701 cir1
0 0 0 setrgbcolor
showpage
grestore
%%EOF
