EESchema Schematic File Version 2
LIBS:power
LIBS:device
LIBS:transistors
LIBS:conn
LIBS:linear
LIBS:regul
LIBS:74xx
LIBS:cmos4000
LIBS:adc-dac
LIBS:memory
LIBS:xilinx
LIBS:special
LIBS:microcontrollers
LIBS:dsp
LIBS:microchip
LIBS:analog_switches
LIBS:motorola
LIBS:texas
LIBS:intel
LIBS:audio
LIBS:interface
LIBS:digital-audio
LIBS:philips
LIBS:display
LIBS:cypress
LIBS:siliconi
LIBS:opto
LIBS:atmel
LIBS:contrib
LIBS:valves
LIBS:detector-cache
EELAYER 27 0
EELAYER END
$Descr A4 11693 8268
encoding utf-8
Sheet 1 1
Title ""
Date "16 aug 2014"
Rev ""
Comp ""
Comment1 ""
Comment2 ""
Comment3 ""
Comment4 ""
$EndDescr
$Comp
L CONN_2 CONN1
U 1 1 51E2DE93
P 1250 2550
F 0 "CONN1" V 1200 2550 40  0000 C CNN
F 1 "BAT" V 1300 2550 40  0000 C CNN
F 2 "" H 1250 2550 60  0000 C CNN
F 3 "" H 1250 2550 60  0000 C CNN
	1    1250 2550
	-1   0    0    1   
$EndComp
$Comp
L MOSFET_N Q1
U 1 1 51E2DEBC
P 1700 3200
F 0 "Q1" H 1710 3370 60  0000 R CNN
F 1 "2N7000" H 1710 3050 60  0000 R CNN
F 2 "~" H 1700 3200 60  0000 C CNN
F 3 "~" H 1700 3200 60  0000 C CNN
	1    1700 3200
	-1   0    0    -1  
$EndComp
$Comp
L PIC16F628A U2
U 1 1 51E2DF36
P 6750 3100
F 0 "U2" H 7050 3900 60  0000 C CNN
F 1 "PIC16F628A" H 7200 2300 60  0000 C CNN
F 2 "" H 6750 3100 60  0000 C CNN
F 3 "" H 6750 3100 60  0000 C CNN
	1    6750 3100
	1    0    0    -1  
$EndComp
$Comp
L GND #PWR01
U 1 1 51E2DF5E
P 1600 4200
F 0 "#PWR01" H 1600 4200 30  0001 C CNN
F 1 "GND" H 1600 4130 30  0001 C CNN
F 2 "" H 1600 4200 60  0000 C CNN
F 3 "" H 1600 4200 60  0000 C CNN
	1    1600 4200
	1    0    0    -1  
$EndComp
$Comp
L CONN_3 CONN2
U 1 1 51E2E084
P 2850 2200
F 0 "CONN2" V 2800 2200 50  0000 C CNN
F 1 "SENSOR" V 2900 2200 40  0000 C CNN
F 2 "" H 2850 2200 60  0000 C CNN
F 3 "" H 2850 2200 60  0000 C CNN
	1    2850 2200
	-1   0    0    1   
$EndComp
$Comp
L C C5
U 1 1 51E2E21B
P 3100 3150
F 0 "C5" H 3100 3250 40  0000 L CNN
F 1 "100n" H 3106 3065 40  0000 L CNN
F 2 "~" H 3138 3000 30  0000 C CNN
F 3 "~" H 3100 3150 60  0000 C CNN
	1    3100 3150
	1    0    0    -1  
$EndComp
$Comp
L CAPAPOL C4
U 1 1 51E2E247
P 2750 3150
F 0 "C4" H 2800 3250 40  0000 L CNN
F 1 "10µF" H 2800 3050 40  0000 L CNN
F 2 "~" H 2850 3000 30  0000 C CNN
F 3 "~" H 2750 3150 300 0000 C CNN
	1    2750 3150
	1    0    0    -1  
$EndComp
$Comp
L R R1
U 1 1 51E2E483
P 3700 2900
F 0 "R1" V 3780 2900 40  0000 C CNN
F 1 "5M" V 3707 2901 40  0000 C CNN
F 2 "~" V 3630 2900 30  0000 C CNN
F 3 "~" H 3700 2900 30  0000 C CNN
	1    3700 2900
	1    0    0    -1  
$EndComp
$Comp
L R R2
U 1 1 51E2E492
P 3700 3650
F 0 "R2" V 3780 3650 40  0000 C CNN
F 1 "1M" V 3707 3651 40  0000 C CNN
F 2 "~" V 3630 3650 30  0000 C CNN
F 3 "~" H 3700 3650 30  0000 C CNN
	1    3700 3650
	1    0    0    -1  
$EndComp
$Comp
L C C1
U 1 1 51E2E4A1
P 4000 3700
F 0 "C1" H 4000 3800 40  0000 L CNN
F 1 "100n" H 4006 3615 40  0000 L CNN
F 2 "~" H 4038 3550 30  0000 C CNN
F 3 "~" H 4000 3700 60  0000 C CNN
	1    4000 3700
	1    0    0    -1  
$EndComp
$Comp
L NPN T1
U 1 1 51E2E4B0
P 4450 3800
F 0 "T1" H 4450 3650 50  0000 R CNN
F 1 "BC548C" H 4450 3950 50  0000 R CNN
F 2 "~" H 4450 3800 60  0000 C CNN
F 3 "~" H 4450 3800 60  0000 C CNN
	1    4450 3800
	1    0    0    -1  
$EndComp
$Comp
L R R3
U 1 1 51E2E519
P 4550 3250
F 0 "R3" V 4630 3250 40  0000 C CNN
F 1 "3.3M" V 4557 3251 40  0000 C CNN
F 2 "~" V 4480 3250 30  0000 C CNN
F 3 "~" H 4550 3250 30  0000 C CNN
	1    4550 3250
	1    0    0    -1  
$EndComp
$Comp
L R R4
U 1 1 51E2E5AA
P 4800 2750
F 0 "R4" V 4880 2750 40  0000 C CNN
F 1 "3.3M" V 4807 2751 40  0000 C CNN
F 2 "~" V 4730 2750 30  0000 C CNN
F 3 "~" H 4800 2750 30  0000 C CNN
	1    4800 2750
	-1   0    0    1   
$EndComp
$Comp
L PNP T3
U 1 1 51E2E5B9
P 4900 3300
F 0 "T3" H 5150 3400 60  0000 R CNN
F 1 "2N2907" H 4900 3150 60  0000 R CNN
F 2 "~" H 4900 3300 60  0000 C CNN
F 3 "~" H 4900 3300 60  0000 C CNN
	1    4900 3300
	-1   0    0    1   
$EndComp
$Comp
L C C2
U 1 1 51E2E5DC
P 4800 3800
F 0 "C2" H 4800 3900 40  0000 L CNN
F 1 "100n" H 4806 3715 40  0000 L CNN
F 2 "~" H 4838 3650 30  0000 C CNN
F 3 "~" H 4800 3800 60  0000 C CNN
	1    4800 3800
	1    0    0    -1  
$EndComp
$Comp
L NPN T2
U 1 1 51E2E65B
P 5050 3550
F 0 "T2" H 5350 3500 50  0000 R CNN
F 1 "BC548C" H 5400 3600 50  0000 R CNN
F 2 "~" H 5050 3550 60  0000 C CNN
F 3 "~" H 5050 3550 60  0000 C CNN
	1    5050 3550
	1    0    0    -1  
$EndComp
$Comp
L R R5
U 1 1 51E2E66A
P 5500 2900
F 0 "R5" V 5580 2900 40  0000 C CNN
F 1 "56k" V 5507 2901 40  0000 C CNN
F 2 "~" V 5430 2900 30  0000 C CNN
F 3 "~" H 5500 2900 30  0000 C CNN
	1    5500 2900
	1    0    0    -1  
$EndComp
$Comp
L SW_PUSH SW1
U 1 1 51E2EECB
P 5500 3750
F 0 "SW1" H 5800 3700 50  0000 C CNN
F 1 "SW_PUSH" H 5500 3670 50  0000 C CNN
F 2 "~" H 5500 3750 60  0000 C CNN
F 3 "~" H 5500 3750 60  0000 C CNN
	1    5500 3750
	0    -1   -1   0   
$EndComp
$Comp
L CAPAPOL C3
U 1 1 51E2FD85
P 2000 3650
F 0 "C3" H 2050 3750 40  0000 L CNN
F 1 "10µF" H 2050 3550 40  0000 L CNN
F 2 "~" H 2100 3500 30  0000 C CNN
F 3 "~" H 2000 3650 300 0000 C CNN
	1    2000 3650
	1    0    0    -1  
$EndComp
$Comp
L R R6
U 1 1 51E3015A
P 6950 4100
F 0 "R6" V 7030 4100 40  0000 C CNN
F 1 "470k" V 6957 4101 40  0000 C CNN
F 2 "~" V 6880 4100 30  0000 C CNN
F 3 "~" H 6950 4100 30  0000 C CNN
	1    6950 4100
	0    -1   -1   0   
$EndComp
$Comp
L R R7
U 1 1 51E301AF
P 6950 4300
F 0 "R7" V 7030 4300 40  0000 C CNN
F 1 "470k" V 6957 4301 40  0000 C CNN
F 2 "~" V 6880 4300 30  0000 C CNN
F 3 "~" H 6950 4300 30  0000 C CNN
	1    6950 4300
	0    -1   -1   0   
$EndComp
$Comp
L CONN_5X2 P1
U 1 1 51E312F9
P 9500 2850
F 0 "P1" H 9500 3150 60  0000 C CNN
F 1 "CONN_5X2" V 9500 2850 50  0000 C CNN
F 2 "" H 9500 2850 60  0000 C CNN
F 3 "" H 9500 2850 60  0000 C CNN
	1    9500 2850
	1    0    0    -1  
$EndComp
NoConn ~ 8050 3650
NoConn ~ 8050 3450
NoConn ~ 8050 3350
$Comp
L PWR_FLAG #FLG02
U 1 1 51E32698
P 1450 3600
F 0 "#FLG02" H 1450 3695 30  0001 C CNN
F 1 "PWR_FLAG" H 1450 3780 30  0000 C CNN
F 2 "" H 1450 3600 60  0000 C CNN
F 3 "" H 1450 3600 60  0000 C CNN
	1    1450 3600
	1    0    0    -1  
$EndComp
NoConn ~ 8050 3050
NoConn ~ 8050 2950
$Comp
L CONN_1 P2
U 1 1 51E84727
P 5300 4600
F 0 "P2" H 5380 4600 40  0000 L CNN
F 1 "CONN_1" H 5300 4655 30  0001 C CNN
F 2 "" H 5300 4600 60  0000 C CNN
F 3 "" H 5300 4600 60  0000 C CNN
	1    5300 4600
	1    0    0    -1  
$EndComp
$Comp
L CONN_1 P3
U 1 1 51E84734
P 5300 4800
F 0 "P3" H 5380 4800 40  0000 L CNN
F 1 "CONN_1" H 5300 4855 30  0001 C CNN
F 2 "" H 5300 4800 60  0000 C CNN
F 3 "" H 5300 4800 60  0000 C CNN
	1    5300 4800
	1    0    0    -1  
$EndComp
Wire Wire Line
	8050 2450 8900 2450
Wire Wire Line
	8050 2550 8800 2550
Wire Wire Line
	10300 2750 9900 2750
Wire Wire Line
	10200 2850 9900 2850
Wire Wire Line
	8150 3550 8050 3550
Wire Wire Line
	8150 4100 8150 3550
Wire Wire Line
	10100 3750 10100 2950
Wire Wire Line
	8050 3750 10100 3750
Wire Wire Line
	10200 3250 10200 2850
Wire Wire Line
	5900 3250 10200 3250
Wire Wire Line
	5900 2800 5900 3250
Wire Wire Line
	5700 2800 5900 2800
Wire Wire Line
	5700 2650 5700 2800
Wire Wire Line
	10300 3200 10300 2750
Wire Wire Line
	5700 3200 10300 3200
Wire Wire Line
	5700 2950 5700 3200
Connection ~ 10000 3150
Wire Wire Line
	9000 3150 10000 3150
Wire Wire Line
	9000 3050 9000 3150
Wire Wire Line
	7400 4300 7200 4300
Wire Wire Line
	2250 4300 6700 4300
Wire Wire Line
	1900 3200 2250 3200
Wire Wire Line
	1600 3400 1600 4200
Wire Wire Line
	1600 2650 1600 3000
Connection ~ 1600 3600
Wire Wire Line
	1600 4100 6700 4100
Wire Wire Line
	5700 3750 5700 4450
Wire Wire Line
	10100 2950 9900 2950
Wire Wire Line
	9100 3050 9000 3050
Wire Wire Line
	10000 3050 9900 3050
Wire Wire Line
	10000 4450 10000 3050
Wire Wire Line
	5700 4450 10000 4450
Connection ~ 9000 2100
Wire Wire Line
	9000 2650 9000 2100
Wire Wire Line
	9100 2650 9000 2650
Wire Wire Line
	10000 2650 9900 2650
Wire Wire Line
	10000 2100 10000 2650
Wire Wire Line
	5500 2100 10000 2100
Wire Wire Line
	4550 3000 4800 3000
Wire Wire Line
	4800 3000 4800 3100
Connection ~ 2900 2450
Connection ~ 2900 4100
Connection ~ 7400 4100
Wire Wire Line
	7200 4100 8150 4100
Wire Wire Line
	7400 4300 7400 4100
Wire Wire Line
	2250 3200 2250 4300
Connection ~ 5700 4100
Connection ~ 2000 3200
Connection ~ 2000 4100
Wire Wire Line
	2000 3850 2000 4100
Connection ~ 2000 2450
Wire Wire Line
	2000 2450 2000 3450
Connection ~ 2450 4100
Connection ~ 4000 3250
Wire Wire Line
	8150 3150 8150 2200
Wire Wire Line
	8050 3150 8150 3150
Connection ~ 3500 4100
Wire Wire Line
	3500 2100 3500 4100
Wire Wire Line
	2900 2850 2900 2450
Connection ~ 3700 2450
Wire Wire Line
	3700 2450 3700 2650
Connection ~ 4800 2450
Wire Wire Line
	4250 3250 4250 3800
Connection ~ 3700 3250
Wire Wire Line
	4000 3250 4000 3500
Wire Wire Line
	3700 3250 4250 3250
Wire Wire Line
	3700 3400 3700 3150
Connection ~ 3700 4100
Wire Wire Line
	3700 4100 3700 3900
Connection ~ 4000 4100
Wire Wire Line
	4000 4100 4000 3900
Connection ~ 1600 4100
Connection ~ 4550 4100
Connection ~ 5500 2450
Wire Wire Line
	4800 2450 4800 2500
Connection ~ 4550 3550
Connection ~ 4800 4100
Wire Wire Line
	4550 4100 4550 4000
Wire Wire Line
	4550 3500 4550 3600
Connection ~ 5150 4100
Wire Wire Line
	4800 4100 4800 4000
Connection ~ 4800 3550
Connection ~ 5500 4100
Wire Wire Line
	5150 4100 5150 3750
Wire Wire Line
	4550 3550 4850 3550
Wire Wire Line
	4800 3500 4800 3600
Connection ~ 5150 3300
Wire Wire Line
	5150 3350 5150 3300
Wire Wire Line
	5500 4100 5500 4050
Connection ~ 5500 3300
Wire Wire Line
	5500 3150 5500 3450
Wire Wire Line
	5100 3300 5700 3300
Wire Wire Line
	5500 2100 5500 2650
Wire Wire Line
	2900 4100 2900 3450
Wire Wire Line
	8150 2200 3200 2200
Connection ~ 2900 2850
Connection ~ 2900 3450
Wire Wire Line
	2750 3450 2750 3350
Wire Wire Line
	3100 3450 2750 3450
Wire Wire Line
	3100 3350 3100 3450
Wire Wire Line
	3100 2850 3100 2950
Wire Wire Line
	2750 2850 3100 2850
Wire Wire Line
	2750 2950 2750 2850
Wire Wire Line
	3200 2100 3500 2100
Connection ~ 3300 2450
Wire Wire Line
	3300 2300 3300 2450
Wire Wire Line
	3200 2300 3300 2300
Text GLabel 8250 2750 2    60   Input ~ 0
LED1
Text GLabel 8250 2850 2    60   Input ~ 0
LED2
Wire Wire Line
	8900 2450 8900 2750
Wire Wire Line
	8900 2750 9100 2750
Wire Wire Line
	8800 2550 8800 2850
Wire Wire Line
	8800 2850 9100 2850
Wire Wire Line
	8700 2650 8700 2950
Wire Wire Line
	8700 2950 9100 2950
Text GLabel 7650 1350 0    60   Input ~ 0
LED1
Text GLabel 7650 1550 0    60   Input ~ 0
LED2
$Comp
L R R8
U 1 1 53D6BD81
P 8000 1350
F 0 "R8" V 8080 1350 40  0000 C CNN
F 1 "1k" V 8007 1351 40  0000 C CNN
F 2 "~" V 7930 1350 30  0000 C CNN
F 3 "~" H 8000 1350 30  0000 C CNN
	1    8000 1350
	0    -1   -1   0   
$EndComp
$Comp
L R R9
U 1 1 53D6BD8E
P 8000 1550
F 0 "R9" V 8080 1550 40  0000 C CNN
F 1 "1k" V 8007 1551 40  0000 C CNN
F 2 "~" V 7930 1550 30  0000 C CNN
F 3 "~" H 8000 1550 30  0000 C CNN
	1    8000 1550
	0    -1   -1   0   
$EndComp
Wire Wire Line
	7750 1350 7650 1350
Wire Wire Line
	7650 1550 7750 1550
$Comp
L CONN_3 K1
U 1 1 53D6BE98
P 8750 1450
F 0 "K1" V 8700 1450 50  0000 C CNN
F 1 "CONN_3" V 8800 1450 40  0000 C CNN
F 2 "" H 8750 1450 60  0000 C CNN
F 3 "" H 8750 1450 60  0000 C CNN
	1    8750 1450
	1    0    0    -1  
$EndComp
Wire Wire Line
	8250 1350 8400 1350
Wire Wire Line
	8400 1550 8250 1550
$Comp
L GND #PWR03
U 1 1 53D6BFB0
P 8250 1450
F 0 "#PWR03" H 8250 1450 30  0001 C CNN
F 1 "GND" H 8250 1380 30  0001 C CNN
F 2 "" H 8250 1450 60  0000 C CNN
F 3 "" H 8250 1450 60  0000 C CNN
	1    8250 1450
	0    1    1    0   
$EndComp
Wire Wire Line
	8250 1450 8400 1450
NoConn ~ 5150 4600
NoConn ~ 5150 4800
Wire Wire Line
	8050 2750 8250 2750
Wire Wire Line
	8050 2650 8700 2650
Wire Wire Line
	8050 2850 8250 2850
Wire Wire Line
	2850 2450 5700 2450
Wire Wire Line
	2450 4100 2450 2750
Wire Wire Line
	1600 2450 2050 2450
$Comp
L 7130 U1
U 1 1 53D6C122
P 2450 2500
F 0 "U1" H 2600 2304 60  0000 C CNN
F 1 "7130" H 2450 2700 60  0000 C CNN
F 2 "~" H 2450 2500 60  0000 C CNN
F 3 "~" H 2450 2500 60  0000 C CNN
	1    2450 2500
	1    0    0    -1  
$EndComp
Wire Wire Line
	1450 3600 1600 3600
$EndSCHEMATC
